[gd_scene load_steps=4 format=2]

[ext_resource path="res://Scripts/Door.gd" type="Script" id=1]
[ext_resource path="res://Images/Structure/Door.png" type="Texture" id=2]

[sub_resource type="RectangleShape2D" id=1]
extents = Vector2( 16, 39 )

[node name="Door" type="Area2D"]
script = ExtResource( 1 )

[node name="Sprite" type="Sprite" parent="."]
scale = Vector2( 4, 4 )
texture = ExtResource( 2 )
hframes = 2

[node name="CollisionShape2D" type="CollisionShape2D" parent="."]
visible = false
position = Vector2( 0, 3 )
shape = SubResource( 1 )

[connection signal="body_entered" from="." to="." method="_on_Door_body_entered"]
[connection signal="body_exited" from="." to="." method="_on_Door_body_exited"]
