[gd_scene load_steps=10 format=2]

[ext_resource path="res://Scripts/Game.gd" type="Script" id=1]
[ext_resource path="res://Tilesets/CityTerrain.tres" type="TileSet" id=2]
[ext_resource path="res://Tilesets/StrctureTileset.tres" type="TileSet" id=3]
[ext_resource path="res://Scenes/Door.tscn" type="PackedScene" id=4]
[ext_resource path="res://Scenes/People/NPC.tscn" type="PackedScene" id=5]
[ext_resource path="res://Scenes/People/Player.tscn" type="PackedScene" id=6]
[ext_resource path="res://Scenes/HUD.tscn" type="PackedScene" id=7]
[ext_resource path="res://Scenes/Stations/CharismaStation.tscn" type="PackedScene" id=8]

[sub_resource type="NavigationPolygon" id=1]
vertices = PoolVector2Array( 2560, 2016, 2272, 2112, 1984, 2144, 1968, 2128, 1984, 2064, 2192, 1504, 2368, 1488, 2400, 1488, 2560, 1504, 384, 2816, 288, 2704, 304, 2384, 480, 2704, 496, 2768, 736, 2848, 736, 2768, 1520, 1152, 1632, 1232, 1504, 1280, 1472, 1280, 1760, 1840, 1888, 1856, 1792, 1968, 1760, 2064, 1792, 2064, 2768, 2672, 2864, 2688, 2784, 2784, 2752, 2784, 1472, 1824, 1616, 1856, 1504, 1984, 1472, 2064, 1504, 2064, 1184, 1840, 1296, 1856, 1216, 1968, 1184, 2064, 1216, 2064, 2784, 2912, 2912, 2912, 2864, 3008, 2576, 3024, 2880, 2272, 2800, 2400, 2720, 2272, 2848, 336, 2736, 208, 2880, 160, 2880, 336, 1216, 1152, 1312, 1216, 1216, 1280, 1184, 1280, 1376, 2384, 1376, 2528, 1080.76, 2438.77, 1280, 2384, 1776, 1152, 1888, 1168, 1936, 1216, 1792, 1296, 1760, 1296, 1600, 2832, 1424, 2848, 1520, 2304, 1616, 2304, 1081.56, 2113.44, 1072, 2064, 2656, 752, 2848, 688, 2864, 848, 2688, 880, 2656, 880, 2400, 352, 2352, 304, 2400, 272, 2432, 272, 2464, 304, 2432, 352, 1984, 368, 2256, 448, 1984, 512, 1824, 480, 1872, 368, 1799.27, 362.805, 1728, 432, 672, 1104, 80, 1104, 96, 1024, 176, 1024, 800, 1024, 1776, 720, 1904, 720, 1888, 848, 1856, 848, 320, 1584, 96, 1584, 112, 1456, 320, 1456, 96, 1360, 80, 1200, 576, 1200, 320, 1360, 880, 2672, 576, 2656, 592, 2544, 736, 2544, 1520, 2240, 1280, 2288, 1248, 2224, 1248, 2384, 1088, 2384, 480, 2464, 768, 2384, 736, 2464, 768, 2544, 880, 2544, 800, 880, 240, 896, 240, 752, 592, 752, 3056, 992, 3056, 1120, 2384, 1104, 2688, 992, 1714.04, 356.717, 1712, 224, 1792, 224, 1552, 416, 1648, 352, 1472, 272, 1568, 256, 1488, 384, 128, 80, 1248, 80, 1248, 496, 672, 320, 1344, 384, 1344, 288, 1488, 496, 1552, 496, 1552, 624, 1360, 624, 1312, 624, 1248, 624, 1312, 944, 1360, 944, 1312, 1024, 1776, 848, 1856, 944, 1888, 944, 1984, 80, 2048, 80, 2400, 432, 2432, 432, 2848, 432, 2880, 432, 2992, 432, 2992, 560, 2353.81, 564.585, 1984, 1024, 2656, 992, 2336, 992, 2176, 1120, 1984, 1056, 2368, 1392, 2368, 1280, 2400, 1280, 2400, 1392, 3056, 2032, 3056, 2112, 2432, 2384, 2432, 2192, 2464, 2192, 2464, 2266.08, 2880, 2192, 2464, 2384, 2576, 2384, 2576, 2912, 1952, 2960, 1968, 2480, 2752, 2912, 1952, 3040, 1088, 3040, 1088, 2960, 2272, 2384, 1728, 2480, 1728, 2384, 1792, 2384, 1792, 2240, 1792, 2304, 1824, 2240, 1824, 2384, 1968, 2384, 1984, 2192, 1984, 1600, 1984, 1392, 2016, 1392, 1184, 1392, 1216, 1392, 1472, 1392, 1504, 1392, 1760, 1392, 1792, 1392, 944, 3040, 896, 2944, 176, 2432, 80, 3040, 80, 2432, 176, 2272, 176, 2944, 896, 3040, 736, 2944, 768, 2768, 768, 2944, 880, 2272, 80, 2272, 80, 2032, 656, 2016, 352, 1680, 592, 1680, 592, 1904, 80, 1904, 80, 1680, 320, 1680, 352, 1584, 352, 1456, 576, 1360, 352, 1360, 800, 1584, 832, 1456, 832, 1584, 800, 1680, 832, 1680, 240, 448, 592, 448, 832, 752, 832, 1024, 176, 960, 96, 960, 176, 320, 96, 320, 672, 1680, 1072, 1712, 3024, 1296, 3024, 1840, 2704, 1856, 2656, 1392, 976, 1680, 976, 1360, 672, 1344, 960, 1024, 1072, 1056, 1072, 1392, 1984, 1712, 1104, 640, 976, 624, 1632, 848, 1584, 800, 1632, 736, 1664, 736, 1712, 800, 1664, 848, 1632, 944, 1664, 944, 688, 592, 1104, 1024, 992, 1392 )
polygons = [ PoolIntArray( 0, 1, 2, 3, 4, 5, 6, 7, 8 ), PoolIntArray( 9, 10, 11, 12, 13 ), PoolIntArray( 14, 9, 13, 15 ), PoolIntArray( 16, 17, 18, 19 ), PoolIntArray( 20, 21, 22 ), PoolIntArray( 23, 20, 22, 24 ), PoolIntArray( 25, 26, 27, 28 ), PoolIntArray( 29, 30, 31 ), PoolIntArray( 32, 29, 31, 33 ), PoolIntArray( 34, 35, 36 ), PoolIntArray( 37, 34, 36, 38 ), PoolIntArray( 39, 40, 41, 42 ), PoolIntArray( 43, 44, 45 ), PoolIntArray( 46, 47, 48, 49 ), PoolIntArray( 50, 51, 52, 53 ), PoolIntArray( 54, 55, 56, 57 ), PoolIntArray( 58, 59, 60, 61, 62 ), PoolIntArray( 63, 64, 65, 66 ), PoolIntArray( 24, 4, 3, 67 ), PoolIntArray( 23, 24, 67 ), PoolIntArray( 33, 23, 67 ), PoolIntArray( 32, 33, 67 ), PoolIntArray( 38, 32, 67 ), PoolIntArray( 37, 38, 67 ), PoolIntArray( 68, 37, 67 ), PoolIntArray( 69, 70, 71, 72, 73 ), PoolIntArray( 74, 75, 76, 77, 78, 79 ), PoolIntArray( 80, 81, 82, 83, 84 ), PoolIntArray( 85, 84, 83, 86 ), PoolIntArray( 87, 88, 89, 90 ), PoolIntArray( 87, 90, 91 ), PoolIntArray( 92, 93, 94, 95 ), PoolIntArray( 96, 97, 98, 99 ), PoolIntArray( 100, 101, 102, 103 ), PoolIntArray( 104, 105, 106, 107 ), PoolIntArray( 108, 66, 65, 109, 110 ), PoolIntArray( 111, 110, 109, 57 ), PoolIntArray( 111, 57, 56 ), PoolIntArray( 112, 111, 56 ), PoolIntArray( 113, 12, 11 ), PoolIntArray( 113, 11, 114, 115 ), PoolIntArray( 115, 114, 116, 107 ), PoolIntArray( 104, 107, 116 ), PoolIntArray( 104, 116, 117 ), PoolIntArray( 118, 119, 120, 121 ), PoolIntArray( 122, 123, 124, 125 ), PoolIntArray( 126, 127, 128, 85, 86 ), PoolIntArray( 126, 86, 129, 130 ), PoolIntArray( 131, 132, 130, 129, 133 ), PoolIntArray( 134, 135, 136, 137 ), PoolIntArray( 133, 138, 139, 131 ), PoolIntArray( 140, 133, 129, 141 ), PoolIntArray( 140, 141, 142, 143 ), PoolIntArray( 136, 140, 143, 144 ), PoolIntArray( 136, 144, 145 ), PoolIntArray( 146, 144, 143, 147 ), PoolIntArray( 148, 146, 147 ), PoolIntArray( 95, 149, 92 ), PoolIntArray( 150, 95, 94, 151 ), PoolIntArray( 80, 152, 153, 81 ), PoolIntArray( 154, 74, 79, 155 ), PoolIntArray( 156, 46, 49, 157 ), PoolIntArray( 157, 158, 159, 160 ), PoolIntArray( 156, 157, 160 ), PoolIntArray( 155, 156, 160 ), PoolIntArray( 81, 154, 155, 160, 161, 82 ), PoolIntArray( 162, 73, 72, 125 ), PoolIntArray( 162, 125, 124 ), PoolIntArray( 161, 163, 162, 124, 164, 165 ), PoolIntArray( 166, 167, 168, 169 ), PoolIntArray( 170, 171, 1, 0 ), PoolIntArray( 172, 173, 174, 175 ), PoolIntArray( 174, 176, 43, 45, 175 ), PoolIntArray( 172, 175, 177 ), PoolIntArray( 177, 178, 179, 180, 181 ), PoolIntArray( 182, 28, 27, 39 ), PoolIntArray( 182, 39, 42 ), PoolIntArray( 180, 179, 182, 42, 183 ), PoolIntArray( 183, 184, 185, 180 ), PoolIntArray( 172, 177, 181 ), PoolIntArray( 186, 172, 181 ), PoolIntArray( 181, 187, 188, 189 ), PoolIntArray( 66, 108, 190, 191 ), PoolIntArray( 191, 190, 192, 193 ), PoolIntArray( 189, 191, 193 ), PoolIntArray( 181, 189, 193 ), PoolIntArray( 181, 193, 194 ), PoolIntArray( 186, 181, 194, 195, 1 ), PoolIntArray( 1, 195, 2 ), PoolIntArray( 196, 197, 198, 5 ), PoolIntArray( 199, 53, 52, 200 ), PoolIntArray( 201, 19, 18, 202 ), PoolIntArray( 203, 62, 61, 204 ), PoolIntArray( 56, 185, 184, 205, 206, 104, 117 ), PoolIntArray( 207, 208, 209, 210 ), PoolIntArray( 208, 207, 211 ), PoolIntArray( 212, 208, 211, 213 ), PoolIntArray( 14, 15, 214, 215 ), PoolIntArray( 213, 14, 215 ), PoolIntArray( 212, 213, 215 ), PoolIntArray( 212, 215, 206, 205 ), PoolIntArray( 112, 56, 117, 216, 67 ), PoolIntArray( 210, 209, 217 ), PoolIntArray( 210, 217, 218, 219 ), PoolIntArray( 67, 216, 210, 219, 68 ), PoolIntArray( 220, 221, 222, 223 ), PoolIntArray( 223, 224, 225 ), PoolIntArray( 220, 223, 225 ), PoolIntArray( 226, 220, 225, 96 ), PoolIntArray( 226, 96, 99, 227 ), PoolIntArray( 102, 228, 229 ), PoolIntArray( 103, 102, 229 ), PoolIntArray( 99, 103, 229, 227 ), PoolIntArray( 230, 226, 227, 231 ), PoolIntArray( 230, 231, 232, 233 ), PoolIntArray( 233, 232, 234 ), PoolIntArray( 120, 235, 236, 121 ), PoolIntArray( 118, 121, 237 ), PoolIntArray( 118, 237, 238, 91 ), PoolIntArray( 239, 90, 89, 240 ), PoolIntArray( 241, 239, 240, 242, 134 ), PoolIntArray( 68, 219, 243, 233, 244 ), PoolIntArray( 245, 246, 247, 248 ), PoolIntArray( 168, 245, 248, 169 ), PoolIntArray( 6, 166, 169, 7 ), PoolIntArray( 244, 233, 234 ), PoolIntArray( 244, 234, 249 ), PoolIntArray( 250, 251, 87, 91, 238 ), PoolIntArray( 250, 238, 252, 253, 254 ), PoolIntArray( 5, 4, 255 ), PoolIntArray( 5, 255, 196 ), PoolIntArray( 164, 5, 198, 165 ), PoolIntArray( 136, 145, 256, 257, 137 ), PoolIntArray( 258, 259, 260, 261, 262, 263 ), PoolIntArray( 264, 258, 263, 265 ), PoolIntArray( 257, 266, 137 ), PoolIntArray( 137, 241, 134 ), PoolIntArray( 252, 257, 256, 267, 253 ), PoolIntArray( 161, 160, 163 ), PoolIntArray( 161, 165, 253, 148 ), PoolIntArray( 244, 249, 268, 255 ), PoolIntArray( 148, 147, 264 ), PoolIntArray( 255, 268, 250, 254 ), PoolIntArray( 150, 151, 161 ), PoolIntArray( 265, 150, 161, 148 ), PoolIntArray( 148, 264, 265 ), PoolIntArray( 267, 148, 253 ), PoolIntArray( 255, 254, 199 ), PoolIntArray( 255, 199, 200 ), PoolIntArray( 255, 200, 201 ), PoolIntArray( 255, 201, 202 ), PoolIntArray( 255, 202, 203 ), PoolIntArray( 255, 203, 204 ), PoolIntArray( 255, 204, 197 ) ]
outlines = [ PoolVector2Array( 128, 80, 1248, 80, 1248, 496, 1488, 496, 1488, 384, 1344, 384, 1344, 288, 1472, 272, 1568, 256, 1648, 352, 1714.04, 356.717, 1712, 224, 1792, 224, 1799.27, 362.805, 1872, 368, 1984, 368, 1984, 512, 1824, 480, 1728, 432, 1552, 416, 1552, 496, 1552, 624, 1360, 624, 1312, 624, 1248, 624, 1104, 640, 1104, 1024, 1312, 1024, 1312, 944, 1312, 624, 1360, 624, 1360, 944, 1632, 944, 1632, 848, 1584, 800, 1632, 736, 1664, 736, 1712, 800, 1664, 848, 1664, 944, 1856, 944, 1856, 848, 1776, 848, 1776, 720, 1904, 720, 1888, 848, 1888, 944, 1984, 1024, 1984, 512, 1984, 368, 1984, 80, 2048, 80, 2256, 448, 2400, 432, 2400, 352, 2352, 304, 2400, 272, 2432, 272, 2464, 304, 2432, 352, 2432, 432, 2848, 432, 2848, 336, 2736, 208, 2880, 160, 2880, 336, 2880, 432, 2992, 432, 2992, 560, 2353.81, 564.585, 2336, 992, 2656, 992, 2656, 880, 2656, 752, 2848, 688, 2864, 848, 2688, 880, 2688, 992, 3056, 992, 3056, 1120, 2384, 1104, 2176, 1120, 2192, 1504, 2368, 1488, 2368, 1392, 2368, 1280, 2400, 1280, 3024, 1296, 3024, 1840, 2704, 1856, 2656, 1392, 2400, 1392, 2400, 1488, 2560, 1504, 2560, 2016, 3056, 2032, 3056, 2112, 2272, 2112, 2272, 2384, 2432, 2384, 2432, 2192, 2464, 2192, 2880, 2192, 2880, 2272, 2800, 2400, 2720, 2272, 2464, 2266.08, 2464, 2384, 2576, 2384, 2576, 2912, 2752, 2912, 2752, 2784, 2768, 2672, 2864, 2688, 2784, 2784, 2784, 2912, 2912, 2912, 2864, 3008, 2576, 3024, 1952, 3040, 1088, 3040, 1088, 2960, 1952, 2960, 1968, 2480, 1728, 2480, 1728, 2384, 1792, 2384, 1792, 2304, 1616, 2304, 1600, 2832, 1424, 2848, 1520, 2304, 1520, 2240, 1792, 2240, 1824, 2240, 1824, 2384, 1968, 2384, 1984, 2192, 1984, 2144, 1984, 2064, 1984, 1712, 1984, 1600, 1984, 1392, 2016, 1392, 1984, 1056, 1072, 1056, 1072, 1392, 1184, 1392, 1184, 1280, 1216, 1152, 1312, 1216, 1216, 1280, 1216, 1392, 1472, 1392, 1472, 1280, 1520, 1152, 1632, 1232, 1504, 1280, 1504, 1392, 1760, 1392, 1760, 1296, 1776, 1152, 1888, 1168, 1936, 1216, 1792, 1296, 1792, 1392, 1984, 1392, 1984, 1712, 1072, 1712, 1072, 2064, 1184, 2064, 1184, 1840, 1296, 1856, 1216, 1968, 1216, 2064, 1472, 2064, 1472, 1824, 1616, 1856, 1504, 1984, 1504, 2064, 1760, 2064, 1760, 1840, 1888, 1856, 1792, 1968, 1792, 2064, 1984, 2064, 1984, 2144, 1968, 2128, 1081.56, 2113.44, 1088, 2384, 1248, 2384, 1248, 2224, 1520, 2240, 1520, 2304, 1280, 2288, 1280, 2384, 1376, 2384, 1376, 2528, 1080.76, 2438.77, 1088, 2960, 1088, 3040, 944, 3040, 896, 3040, 80, 3040, 80, 2432, 176, 2432, 176, 2944, 736, 2944, 736, 2848, 384, 2816, 288, 2704, 480, 2704, 496, 2768, 736, 2768, 768, 2768, 768, 2944, 896, 2944, 880, 2672, 576, 2656, 592, 2544, 736, 2544, 736, 2464, 480, 2464, 480, 2704, 288, 2704, 304, 2384, 768, 2384, 768, 2544, 880, 2544, 880, 2272, 176, 2272, 176, 2432, 80, 2432, 80, 2272, 80, 2032, 656, 2016, 672, 1680, 800, 1680, 800, 1584, 352, 1584, 352, 1680, 592, 1680, 592, 1904, 80, 1904, 80, 1680, 320, 1680, 320, 1584, 96, 1584, 112, 1456, 320, 1456, 320, 1360, 96, 1360, 80, 1200, 576, 1200, 576, 1360, 352, 1360, 352, 1456, 832, 1456, 832, 1584, 832, 1680, 976, 1680, 992, 1392, 976, 1360, 672, 1344, 672, 1104, 80, 1104, 96, 1024, 176, 1024, 800, 1024, 800, 880, 240, 896, 240, 752, 240, 448, 592, 448, 592, 752, 832, 752, 832, 1024, 960, 1024, 976, 624, 688, 592, 672, 320, 176, 320, 176, 960, 176, 1024, 96, 1024, 96, 960, 96, 320 ) ]

[node name="Game" type="Node2D"]
script = ExtResource( 1 )

[node name="TerrainMap" type="TileMap" parent="."]
scale = Vector2( 4, 4 )
tile_set = ExtResource( 2 )
cell_size = Vector2( 16, 16 )
format = 1
tile_data = PoolIntArray( 65537, 0, 0, 65538, 0, 0, 65539, 0, 0, 65540, 0, 0, 65541, 0, 0, 65542, 0, 0, 65543, 0, 0, 65544, 0, 0, 65545, 0, 0, 65546, 0, 0, 65547, 0, 0, 65548, 0, 0, 65549, 0, 0, 65550, 0, 0, 65551, 0, 0, 65553, 0, 0, 65554, 0, 0, 65555, 0, 0, 65556, 0, 0, 65557, 0, 0, 65558, 0, 0, 65559, 0, 0, 65560, 0, 0, 65561, 0, 0, 65562, 0, 0, 65563, 0, 0, 65564, 0, 0, 65565, 0, 0, 65566, 0, 0, 65568, 0, 0, 65569, 0, 0, 65570, 0, 0, 65571, 0, 0, 65572, 0, 0, 65573, 0, 0, 65574, 0, 0, 65575, 0, 0, 65576, 0, 0, 65577, 0, 0, 65578, 0, 0, 65579, 0, 0, 65580, 0, 0, 65581, 0, 0, 65582, 0, 0, 65583, 0, 0, 131073, 0, 0, 131074, 0, 65537, 131075, 0, 65537, 131076, 0, 1, 131077, 0, 65536, 131078, 0, 131073, 131079, 0, 1, 131080, 0, 65537, 131081, 0, 65537, 131082, 0, 196609, 131083, 0, 65537, 131084, 0, 65537, 131085, 0, 65537, 131086, 0, 65537, 131087, 0, 0, 131089, 0, 0, 131090, 1, 0, 131091, 1, 1, 131092, 1, 1, 131093, 1, 1, 131094, 1, 1, 131095, 1, 1, 131096, 1, 1, 131097, 1, 1, 131098, 1, 1, 131099, 1, 1, 131100, 1, 1, 131101, 1, 2, 131102, 0, 0, 131104, 0, 0, 131105, 0, 65537, 131106, 0, 65537, 131107, 0, 1, 131108, 0, 131074, 131109, 0, 196608, 131110, 0, 65536, 131111, 0, 65537, 131112, 0, 65537, 131113, 0, 65537, 131114, 0, 65537, 131115, 0, 65537, 131116, 0, 65537, 131117, 0, 65537, 131118, 0, 65538, 131119, 0, 0, 196609, 0, 0, 196610, 0, 65537, 196611, 0, 2, 196612, 0, 65537, 196613, 0, 65537, 196614, 0, 65536, 196615, 0, 196609, 196616, 0, 65537, 196617, 0, 65537, 196618, 0, 65537, 196619, 0, 65537, 196620, 0, 65537, 196621, 0, 196610, 196622, 0, 65536, 196623, 0, 0, 196625, 0, 0, 196626, 1, 65536, 196627, 1, 196608, 196628, 1, 196609, 196629, 1, 65537, 196630, 1, 65537, 196631, 1, 196608, 196632, 1, 196608, 196633, 1, 65537, 196634, 1, 196610, 196635, 1, 196610, 196636, 1, 196610, 196637, 1, 65538, 196638, 0, 0, 196640, 0, 0, 196641, 0, 65537, 196642, 0, 65537, 196643, 0, 65537, 196644, 0, 65537, 196645, 0, 65537, 196646, 0, 131072, 196647, 0, 65537, 196648, 0, 131072, 196649, 0, 131072, 196650, 0, 131072, 196651, 0, 65537, 196652, 0, 65537, 196653, 0, 65537, 196654, 0, 196610, 196655, 0, 0, 262145, 0, 0, 262146, 0, 65537, 262147, 0, 65537, 262148, 0, 65537, 262149, 0, 65537, 262150, 0, 65537, 262151, 0, 65537, 262152, 0, 65537, 262153, 0, 196610, 262154, 0, 65536, 262155, 0, 1, 262156, 0, 65537, 262157, 0, 65536, 262158, 0, 196608, 262159, 0, 0, 262161, 0, 0, 262162, 1, 65536, 262163, 1, 65537, 262164, 1, 196609, 262165, 1, 65537, 262166, 1, 196610, 262167, 1, 196609, 262168, 1, 196610, 262169, 1, 196609, 262170, 1, 196608, 262171, 1, 196610, 262172, 1, 65537, 262173, 1, 65538, 262174, 0, 0, 262176, 0, 0, 262177, 0, 0, 262178, 0, 131072, 262179, 0, 65537, 262180, 0, 65537, 262181, 0, 131074, 262182, 0, 65537, 262183, 0, 0, 262184, 0, 1, 262185, 0, 65537, 262186, 0, 0, 262187, 0, 65537, 262188, 0, 65536, 262189, 0, 2, 262190, 0, 65537, 262191, 0, 0, 327681, 0, 0, 327682, 0, 131074, 327683, 0, 1, 327684, 0, 65537, 327685, 0, 65536, 327686, 0, 65537, 327687, 0, 65537, 327688, 0, 65537, 327689, 0, 65537, 327690, 0, 0, 327691, 0, 196609, 327692, 0, 65537, 327693, 0, 65537, 327694, 0, 65537, 327695, 0, 0, 327697, 0, 0, 327698, 1, 65536, 327699, 1, 65537, 327700, 1, 196608, 327701, 1, 196608, 327702, 1, 196609, 327703, 1, 196609, 327704, 1, 65537, 327705, 1, 196608, 327706, 1, 196609, 327707, 1, 65537, 327708, 1, 65537, 327709, 1, 65538, 327710, 0, 0, 327712, 0, 0, 327713, 0, 65537, 327714, 0, 65537, 327715, 0, 131072, 327716, 0, 196609, 327717, 0, 65536, 327718, 0, 65537, 327719, 0, 65537, 327720, 0, 65537, 327721, 0, 65537, 327722, 0, 65536, 327723, 0, 1, 327724, 0, 2, 327725, 0, 65537, 327726, 0, 196608, 327727, 0, 0, 393217, 0, 0, 393218, 0, 65537, 393219, 0, 65537, 393220, 0, 196610, 393221, 0, 65537, 393222, 0, 65537, 393223, 0, 65537, 393224, 0, 65537, 393225, 0, 65537, 393226, 0, 131074, 393227, 0, 1, 393228, 0, 196609, 393229, 0, 65537, 393230, 0, 65537, 393231, 0, 0, 393233, 0, 0, 393234, 1, 65536, 393235, 1, 196610, 393236, 1, 65537, 393237, 1, 196610, 393238, 1, 196609, 393239, 1, 65537, 393240, 1, 65537, 393241, 1, 196609, 393242, 1, 196608, 393243, 1, 196610, 393244, 1, 196610, 393245, 1, 65538, 393246, 0, 0, 393248, 0, 0, 393249, 0, 65537, 393250, 0, 65536, 393251, 0, 131074, 393252, 0, 65537, 393253, 0, 2, 393254, 0, 0, 393255, 0, 1, 393256, 0, 65537, 393257, 0, 65537, 393258, 0, 65537, 393259, 0, 65537, 393260, 0, 65537, 393261, 0, 65537, 393262, 0, 1, 393263, 0, 0, 458753, 0, 0, 458754, 0, 65536, 458755, 0, 65537, 458756, 0, 65537, 458757, 0, 65537, 458758, 0, 65537, 458759, 0, 65537, 458760, 0, 65537, 458761, 0, 131072, 458762, 0, 65536, 458763, 0, 65537, 458764, 0, 65537, 458765, 0, 65537, 458766, 0, 65537, 458767, 0, 0, 458769, 0, 0, 458770, 1, 65536, 458771, 1, 196609, 458772, 1, 196608, 458773, 1, 65537, 458774, 1, 65537, 458775, 1, 196610, 458776, 1, 196608, 458777, 1, 196608, 458778, 1, 196610, 458779, 1, 196610, 458780, 1, 196609, 458781, 1, 65538, 458782, 0, 0, 458784, 0, 0, 458785, 0, 131072, 458786, 0, 65537, 458787, 0, 65537, 458788, 0, 131073, 458789, 0, 196609, 458790, 0, 65537, 458791, 0, 2, 458792, 0, 65537, 458793, 0, 65537, 458794, 0, 65537, 458795, 0, 1, 458796, 0, 65537, 458797, 0, 65537, 458798, 0, 196610, 458799, 0, 0, 524289, 0, 0, 524290, 0, 196608, 524291, 0, 131073, 524292, 0, 131072, 524293, 0, 65537, 524294, 0, 65537, 524295, 0, 65537, 524296, 0, 65537, 524297, 0, 65537, 524298, 0, 65537, 524299, 0, 65537, 524300, 0, 65537, 524301, 0, 65537, 524302, 0, 65536, 524303, 0, 0, 524305, 0, 0, 524306, 1, 65536, 524307, 1, 196608, 524308, 1, 65537, 524309, 1, 65537, 524310, 1, 65537, 524311, 1, 196609, 524312, 1, 65537, 524313, 1, 196609, 524314, 1, 196608, 524315, 1, 65537, 524316, 1, 65537, 524317, 1, 65538, 524318, 0, 0, 524320, 0, 0, 524321, 0, 65537, 524322, 0, 65537, 524323, 0, 65537, 524324, 0, 65536, 524325, 0, 65537, 524326, 0, 196610, 524327, 0, 65537, 524328, 0, 65537, 524329, 0, 65537, 524330, 0, 65536, 524331, 0, 65537, 524332, 0, 65537, 524333, 0, 65536, 524334, 0, 65537, 524335, 0, 0, 589825, 0, 0, 589826, 0, 65537, 589827, 0, 2, 589828, 0, 65537, 589829, 0, 65538, 589830, 0, 1, 589831, 0, 65537, 589832, 0, 65537, 589833, 0, 1, 589834, 0, 65536, 589835, 0, 196608, 589836, 0, 65537, 589837, 0, 131074, 589838, 0, 65537, 589839, 0, 0, 589841, 0, 0, 589842, 1, 131072, 589843, 1, 131073, 589844, 1, 131073, 589845, 1, 131073, 589846, 1, 131073, 589847, 1, 131073, 589848, 1, 131073, 589849, 1, 131073, 589850, 1, 131073, 589851, 1, 131073, 589852, 1, 131073, 589853, 1, 131074, 589854, 0, 0, 589856, 0, 0, 589857, 0, 0, 589858, 0, 0, 589859, 0, 0, 589860, 0, 0, 589861, 0, 65537, 589862, 0, 65536, 589863, 0, 65537, 589864, 0, 131072, 589865, 0, 131074, 589866, 0, 65537, 589867, 0, 1, 589868, 0, 1, 589869, 0, 65537, 589870, 0, 65536, 589871, 0, 0, 655361, 0, 0, 655362, 0, 131072, 655363, 0, 65537, 655364, 0, 1, 655365, 0, 65537, 655366, 0, 65537, 655367, 0, 131072, 655368, 0, 65536, 655369, 0, 65537, 655370, 0, 131072, 655371, 0, 65536, 655372, 0, 65537, 655373, 0, 65537, 655374, 0, 65537, 655375, 0, 0, 655377, 0, 0, 655378, 0, 0, 655379, 0, 0, 655380, 0, 0, 655381, 0, 0, 655382, 0, 0, 655383, 0, 0, 655384, 0, 0, 655385, 0, 0, 655386, 0, 0, 655387, 0, 0, 655388, 0, 0, 655389, 0, 0, 655390, 0, 0, 655392, 0, 0, 655393, 1, 0, 655394, 1, 1, 655395, 1, 2, 655396, 0, 0, 655397, 0, 65537, 655398, 0, 65537, 655399, 0, 65537, 655400, 0, 65537, 655401, 0, 1, 655402, 0, 131074, 655403, 0, 65537, 655404, 0, 65537, 655405, 0, 196610, 655406, 0, 65537, 655407, 0, 0, 720897, 0, 0, 720898, 0, 65537, 720899, 0, 65537, 720900, 0, 65537, 720901, 0, 65537, 720902, 0, 131072, 720903, 0, 1, 720904, 0, 65538, 720905, 0, 1, 720906, 0, 65537, 720907, 0, 65538, 720908, 0, 131072, 720909, 0, 65536, 720910, 0, 65537, 720911, 0, 0, 720913, 0, 0, 720914, 0, 196610, 720915, 0, 65537, 720916, 0, 1, 720917, 0, 65537, 720918, 0, 65537, 720919, 0, 65537, 720920, 0, 1, 720921, 0, 65537, 720922, 0, 65537, 720923, 0, 65537, 720924, 0, 65537, 720925, 0, 65537, 720926, 0, 0, 720928, 0, 0, 720929, 1, 65536, 720930, 1, 65537, 720931, 1, 65538, 720932, 0, 0, 720933, 0, 131072, 720934, 0, 65537, 720935, 0, 65537, 720936, 0, 65537, 720937, 0, 65537, 720938, 0, 65537, 720939, 0, 65537, 720940, 0, 65537, 720941, 0, 131072, 720942, 0, 65537, 720943, 0, 0, 786433, 0, 0, 786434, 0, 65536, 786435, 0, 65537, 786436, 0, 65536, 786437, 0, 131072, 786438, 0, 65537, 786439, 0, 2, 786440, 0, 65537, 786441, 0, 65537, 786442, 0, 131072, 786443, 0, 65537, 786444, 0, 65537, 786445, 0, 65537, 786446, 0, 65537, 786447, 0, 0, 786449, 0, 0, 786450, 0, 65537, 786451, 0, 65537, 786452, 0, 65537, 786453, 0, 65537, 786454, 0, 65537, 786455, 0, 0, 786456, 0, 65537, 786457, 0, 131072, 786458, 0, 65537, 786459, 0, 1, 786460, 0, 65537, 786461, 0, 65537, 786462, 0, 0, 786464, 0, 0, 786465, 1, 65536, 786466, 1, 65537, 786467, 1, 65538, 786468, 0, 0, 786469, 0, 131073, 786470, 0, 65536, 786471, 0, 65537, 786472, 0, 131072, 786473, 0, 65537, 786474, 0, 65537, 786475, 0, 65536, 786476, 0, 65537, 786477, 0, 131074, 786478, 0, 131073, 786479, 0, 0, 851969, 0, 0, 851970, 0, 65536, 851971, 0, 65537, 851972, 0, 65537, 851973, 0, 65537, 851974, 0, 131072, 851975, 0, 65537, 851976, 0, 65537, 851977, 0, 1, 851978, 0, 65537, 851979, 0, 65537, 851980, 0, 65537, 851981, 0, 65537, 851982, 0, 65537, 851983, 0, 0, 851985, 0, 0, 851986, 0, 131072, 851987, 0, 65537, 851988, 0, 131072, 851989, 0, 65537, 851990, 0, 131072, 851991, 0, 65536, 851992, 0, 65537, 851993, 0, 1, 851994, 0, 2, 851995, 0, 65537, 851996, 0, 65537, 851997, 0, 65537, 851998, 0, 0, 852000, 0, 0, 852001, 1, 131072, 852002, 1, 131073, 852003, 1, 131074, 852004, 0, 0, 852005, 0, 131072, 852006, 0, 65537, 852007, 0, 65537, 852008, 0, 65536, 852009, 0, 65537, 852010, 0, 65537, 852011, 0, 2, 852012, 0, 65537, 852013, 0, 65537, 852014, 0, 1, 852015, 0, 0, 917505, 0, 0, 917506, 0, 65536, 917507, 0, 65537, 917508, 0, 65537, 917509, 0, 65537, 917510, 0, 65537, 917511, 0, 65537, 917512, 0, 65536, 917513, 0, 65537, 917514, 0, 65537, 917515, 0, 65537, 917516, 0, 65537, 917517, 0, 65537, 917518, 0, 65537, 917519, 0, 0, 917521, 0, 0, 917522, 0, 65537, 917523, 0, 65537, 917524, 0, 65537, 917525, 0, 65536, 917526, 0, 65537, 917527, 0, 65537, 917528, 0, 65537, 917529, 0, 0, 917530, 0, 65537, 917531, 0, 65536, 917532, 0, 1, 917533, 0, 65537, 917534, 0, 0, 917536, 0, 0, 917537, 0, 0, 917538, 0, 0, 917539, 0, 0, 917540, 0, 0, 917541, 0, 65537, 917542, 0, 65537, 917543, 0, 1, 917544, 0, 65537, 917545, 0, 65537, 917546, 0, 65537, 917547, 0, 65537, 917548, 0, 65538, 917549, 0, 2, 917550, 0, 65536, 917551, 0, 0, 983041, 0, 0, 983042, 0, 0, 983043, 0, 0, 983044, 0, 0, 983045, 0, 0, 983046, 0, 0, 983047, 0, 0, 983048, 0, 0, 983049, 0, 0, 983050, 0, 0, 983051, 0, 0, 983052, 0, 0, 983053, 0, 0, 983054, 0, 0, 983055, 0, 0, 983057, 0, 0, 983058, 0, 0, 983059, 0, 0, 983060, 0, 0, 983061, 0, 0, 983062, 0, 0, 983063, 0, 0, 983064, 0, 0, 983065, 0, 0, 983066, 0, 0, 983067, 0, 0, 983068, 0, 0, 983069, 0, 0, 983070, 0, 0, 983072, 0, 0, 983073, 0, 0, 983074, 0, 0, 983075, 0, 0, 983076, 0, 0, 983077, 0, 0, 983078, 0, 0, 983079, 0, 0, 983080, 0, 0, 983081, 0, 0, 983082, 0, 0, 983083, 0, 0, 983084, 0, 0, 983085, 0, 0, 983086, 0, 0, 983087, 0, 0, 1114113, 0, 0, 1114114, 0, 0, 1114115, 0, 0, 1114116, 0, 0, 1114117, 0, 0, 1114118, 0, 0, 1114119, 0, 0, 1114120, 0, 0, 1114121, 0, 0, 1114122, 0, 0, 1114123, 0, 0, 1114124, 0, 0, 1114125, 0, 0, 1114126, 0, 0, 1114127, 0, 0, 1114129, 0, 0, 1114130, 0, 0, 1114131, 0, 0, 1114132, 0, 0, 1114133, 0, 0, 1114134, 0, 0, 1114135, 0, 0, 1114136, 0, 0, 1114137, 0, 0, 1114138, 0, 0, 1114139, 0, 0, 1114140, 0, 0, 1114141, 0, 0, 1114142, 0, 0, 1114144, 0, 0, 1114145, 0, 0, 1114146, 0, 0, 1114147, 0, 0, 1114148, 0, 0, 1114149, 0, 0, 1114150, 0, 0, 1114151, 0, 0, 1114152, 0, 0, 1114153, 0, 0, 1114154, 0, 0, 1114155, 0, 0, 1114156, 0, 0, 1114157, 0, 0, 1114158, 0, 0, 1114159, 0, 0, 1179649, 0, 0, 1179650, 0, 65537, 1179651, 0, 65537, 1179652, 0, 65537, 1179653, 0, 1, 1179654, 0, 1, 1179655, 0, 65537, 1179656, 0, 65537, 1179657, 0, 65537, 1179658, 0, 0, 1179659, 1, 0, 1179660, 1, 1, 1179661, 1, 1, 1179662, 1, 2, 1179663, 0, 0, 1179665, 0, 0, 1179666, 0, 65536, 1179667, 0, 65537, 1179668, 0, 196608, 1179669, 0, 65536, 1179670, 0, 196610, 1179671, 0, 65537, 1179672, 0, 131074, 1179673, 0, 65537, 1179674, 0, 65537, 1179675, 0, 65537, 1179676, 0, 65536, 1179677, 0, 65537, 1179678, 0, 0, 1179680, 0, 0, 1179681, 0, 196609, 1179682, 0, 65537, 1179683, 0, 65537, 1179684, 0, 65537, 1179685, 0, 65537, 1179686, 0, 65536, 1179687, 0, 65537, 1179688, 0, 65537, 1179689, 0, 65537, 1179690, 0, 65536, 1179691, 0, 131074, 1179692, 0, 65537, 1179693, 0, 65537, 1179694, 0, 65537, 1179695, 0, 0, 1245185, 0, 0, 1245186, 0, 65537, 1245187, 0, 65536, 1245188, 0, 131074, 1245189, 0, 65537, 1245190, 0, 196609, 1245191, 0, 65536, 1245192, 0, 1, 1245193, 0, 2, 1245194, 0, 0, 1245195, 1, 65536, 1245196, 1, 196609, 1245197, 1, 65537, 1245198, 1, 65538, 1245199, 0, 0, 1245201, 0, 0, 1245202, 0, 65537, 1245203, 0, 65537, 1245204, 0, 65537, 1245205, 0, 131072, 1245206, 0, 65537, 1245207, 0, 65537, 1245208, 0, 65537, 1245209, 0, 131073, 1245210, 0, 65537, 1245211, 0, 65537, 1245212, 0, 65537, 1245213, 0, 65537, 1245214, 0, 0, 1245216, 0, 0, 1245217, 0, 2, 1245218, 0, 65537, 1245219, 0, 65537, 1245220, 0, 65537, 1245221, 0, 65537, 1245222, 0, 65537, 1245223, 0, 65537, 1245224, 0, 65537, 1245225, 0, 65537, 1245226, 0, 65537, 1245227, 0, 65537, 1245228, 0, 65537, 1245229, 0, 65537, 1245230, 0, 65537, 1245231, 0, 0, 1310721, 0, 0, 1310722, 0, 65537, 1310723, 0, 65537, 1310724, 0, 65537, 1310725, 0, 65537, 1310726, 0, 65537, 1310727, 0, 2, 1310728, 0, 65537, 1310729, 0, 65537, 1310730, 0, 0, 1310731, 1, 131072, 1310732, 1, 131073, 1310733, 1, 131073, 1310734, 1, 131074, 1310735, 0, 0, 1310737, 0, 0, 1310738, 0, 65537, 1310739, 0, 65537, 1310740, 0, 65537, 1310741, 0, 65537, 1310742, 0, 65537, 1310743, 0, 2, 1310744, 0, 65537, 1310745, 0, 65537, 1310746, 0, 65537, 1310747, 0, 65538, 1310748, 0, 65537, 1310749, 0, 65537, 1310750, 0, 0, 1310752, 0, 0, 1310753, 0, 196610, 1310754, 0, 65536, 1310755, 0, 65537, 1310756, 0, 65537, 1310757, 0, 2, 1310758, 0, 65537, 1310759, 0, 65537, 1310760, 0, 65537, 1310761, 0, 65537, 1310762, 0, 65536, 1310763, 0, 65537, 1310764, 0, 65537, 1310765, 0, 2, 1310766, 0, 196608, 1310767, 0, 0, 1376257, 0, 0, 1376258, 0, 1, 1376259, 0, 65537, 1376260, 0, 1, 1376261, 0, 131072, 1376262, 0, 65537, 1376263, 0, 65536, 1376264, 0, 65536, 1376265, 0, 131072, 1376266, 0, 0, 1376267, 0, 0, 1376268, 0, 0, 1376269, 0, 0, 1376270, 0, 0, 1376271, 0, 0, 1376273, 0, 0, 1376274, 0, 65537, 1376275, 0, 65537, 1376276, 0, 196609, 1376277, 0, 65537, 1376278, 0, 196610, 1376279, 0, 65537, 1376280, 0, 65537, 1376281, 0, 131072, 1376282, 0, 65537, 1376283, 0, 65537, 1376284, 0, 65537, 1376285, 0, 1, 1376286, 0, 0, 1376288, 0, 0, 1376289, 0, 65537, 1376290, 0, 65537, 1376291, 0, 65537, 1376292, 0, 65537, 1376293, 0, 65537, 1376294, 0, 65537, 1376295, 0, 65537, 1376296, 0, 65537, 1376297, 0, 65537, 1376298, 0, 65537, 1376299, 0, 65537, 1376300, 0, 1, 1376301, 0, 65537, 1376302, 0, 65537, 1376303, 0, 0, 1441793, 0, 0, 1441794, 0, 131072, 1441795, 0, 65537, 1441796, 0, 65537, 1441797, 0, 65537, 1441798, 0, 131072, 1441799, 0, 131072, 1441800, 0, 0, 1441801, 0, 65536, 1441802, 0, 65537, 1441803, 0, 65537, 1441804, 0, 65537, 1441805, 0, 65537, 1441806, 0, 131072, 1441807, 0, 0, 1441809, 0, 0, 1441810, 0, 65536, 1441811, 0, 0, 1441812, 0, 0, 1441813, 0, 0, 1441814, 0, 0, 1441815, 0, 0, 1441816, 0, 0, 1441817, 0, 0, 1441818, 0, 0, 1441819, 0, 0, 1441820, 0, 0, 1441821, 0, 65537, 1441822, 0, 0, 1441824, 0, 0, 1441825, 0, 65537, 1441826, 0, 2, 1441827, 0, 196610, 1441828, 0, 65537, 1441829, 0, 131072, 1441830, 0, 65537, 1441831, 0, 65537, 1441832, 0, 65537, 1441833, 0, 65536, 1441834, 0, 65537, 1441835, 0, 65537, 1441836, 0, 65537, 1441837, 0, 65536, 1441838, 0, 65537, 1441839, 0, 0, 1507329, 0, 0, 1507330, 0, 65537, 1507331, 0, 131072, 1507332, 0, 131072, 1507333, 0, 65536, 1507334, 0, 65537, 1507335, 0, 65537, 1507336, 0, 65538, 1507337, 0, 65537, 1507338, 0, 131073, 1507339, 0, 65537, 1507340, 0, 131072, 1507341, 0, 65538, 1507342, 0, 65537, 1507343, 0, 0, 1507345, 0, 0, 1507346, 0, 0, 1507347, 0, 0, 1507348, 1, 0, 1507349, 1, 1, 1507350, 1, 1, 1507351, 1, 2, 1507352, 0, 0, 1507353, 1, 0, 1507354, 1, 1, 1507355, 1, 2, 1507356, 0, 0, 1507357, 0, 0, 1507358, 0, 0, 1507360, 0, 0, 1507361, 0, 65537, 1507362, 0, 65537, 1507363, 0, 65537, 1507364, 0, 65537, 1507365, 0, 65537, 1507366, 0, 65537, 1507367, 0, 65538, 1507368, 0, 65537, 1507369, 0, 65537, 1507370, 0, 65537, 1507371, 0, 65537, 1507372, 0, 65537, 1507373, 0, 65537, 1507374, 0, 131072, 1507375, 0, 0, 1572865, 0, 0, 1572866, 0, 1, 1572867, 0, 65537, 1572868, 0, 65537, 1572869, 0, 65537, 1572870, 0, 65536, 1572871, 0, 65536, 1572872, 0, 65537, 1572873, 0, 65537, 1572874, 0, 1, 1572875, 0, 131073, 1572876, 0, 65537, 1572877, 0, 65536, 1572878, 0, 0, 1572879, 0, 0, 1572881, 0, 0, 1572882, 1, 0, 1572883, 1, 1, 1572884, 1, 65540, 1572885, 1, 196609, 1572886, 1, 65537, 1572887, 1, 65539, 1572888, 1, 1, 1572889, 1, 65540, 1572890, 1, 196608, 1572891, 1, 65539, 1572892, 1, 2, 1572893, 0, 0, 1572894, 0, 0, 1572896, 0, 0, 1572897, 0, 0, 1572898, 0, 0, 1572899, 0, 0, 1572900, 0, 0, 1572901, 0, 0, 1572902, 0, 0, 1572903, 0, 65537, 1572904, 0, 131074, 1572905, 0, 65537, 1572906, 0, 65537, 1572907, 0, 2, 1572908, 0, 65537, 1572909, 0, 65537, 1572910, 0, 131073, 1572911, 0, 0, 1638401, 0, 0, 1638402, 0, 196610, 1638403, 0, 131073, 1638404, 0, 65537, 1638405, 0, 65537, 1638406, 0, 65537, 1638407, 0, 65537, 1638408, 0, 65537, 1638409, 0, 0, 1638410, 0, 0, 1638411, 0, 0, 1638412, 0, 0, 1638413, 0, 0, 1638414, 0, 0, 1638415, 0, 0, 1638417, 0, 0, 1638418, 1, 131072, 1638419, 1, 131073, 1638420, 1, 131073, 1638421, 1, 131073, 1638422, 1, 131073, 1638423, 1, 131073, 1638424, 1, 131073, 1638425, 1, 131073, 1638426, 1, 131073, 1638427, 1, 131073, 1638428, 1, 131074, 1638429, 0, 0, 1638430, 0, 0, 1638432, 0, 0, 1638433, 1, 0, 1638434, 1, 1, 1638435, 1, 1, 1638436, 1, 1, 1638437, 1, 2, 1638438, 0, 0, 1638439, 0, 65537, 1638440, 0, 65537, 1638441, 0, 196608, 1638442, 0, 65536, 1638443, 0, 65537, 1638444, 0, 1, 1638445, 0, 65537, 1638446, 0, 131072, 1638447, 0, 0, 1703937, 0, 0, 1703938, 0, 65537, 1703939, 0, 65537, 1703940, 0, 131074, 1703941, 0, 65536, 1703942, 0, 65538, 1703943, 0, 1, 1703944, 0, 65537, 1703945, 0, 0, 1703946, 1, 0, 1703947, 1, 2, 1703948, 0, 0, 1703949, 1, 0, 1703950, 1, 2, 1703951, 0, 0, 1703953, 0, 0, 1703954, 0, 0, 1703955, 0, 0, 1703956, 0, 0, 1703957, 0, 0, 1703958, 0, 0, 1703959, 0, 0, 1703960, 0, 0, 1703961, 0, 0, 1703962, 0, 0, 1703963, 0, 0, 1703964, 0, 0, 1703965, 0, 0, 1703966, 0, 0, 1703968, 0, 0, 1703969, 1, 65536, 1703970, 1, 196610, 1703971, 1, 196610, 1703972, 1, 65537, 1703973, 1, 65538, 1703974, 0, 0, 1703975, 0, 65537, 1703976, 0, 65537, 1703977, 0, 1, 1703978, 0, 1, 1703979, 0, 1, 1703980, 0, 65537, 1703981, 0, 65537, 1703982, 0, 65537, 1703983, 0, 0, 1769473, 0, 0, 1769474, 0, 65537, 1769475, 0, 65536, 1769476, 0, 65537, 1769477, 0, 131072, 1769478, 0, 65537, 1769479, 0, 65537, 1769480, 0, 65537, 1769481, 0, 0, 1769482, 1, 65536, 1769483, 1, 65538, 1769484, 0, 0, 1769485, 1, 65536, 1769486, 1, 65538, 1769487, 0, 0, 1769489, 0, 0, 1769490, 0, 65537, 1769491, 0, 65537, 1769492, 0, 131072, 1769493, 0, 131074, 1769494, 0, 65537, 1769495, 0, 65537, 1769496, 0, 65537, 1769497, 0, 65537, 1769498, 0, 65537, 1769499, 0, 65537, 1769500, 0, 1, 1769501, 0, 65537, 1769502, 0, 0, 1769504, 0, 0, 1769505, 1, 65536, 1769506, 1, 65537, 1769507, 1, 65537, 1769508, 1, 65537, 1769509, 1, 65538, 1769510, 0, 0, 1769511, 0, 196610, 1769512, 0, 65537, 1769513, 0, 1, 1769514, 0, 131074, 1769515, 0, 65537, 1769516, 0, 131072, 1769517, 0, 65537, 1769518, 0, 65537, 1769519, 0, 0, 1835009, 0, 0, 1835010, 0, 65537, 1835011, 0, 65537, 1835012, 0, 65537, 1835013, 0, 65537, 1835014, 0, 65538, 1835015, 0, 65537, 1835016, 0, 131074, 1835017, 0, 0, 1835018, 1, 65536, 1835019, 1, 65538, 1835020, 0, 0, 1835021, 1, 65536, 1835022, 1, 65538, 1835023, 0, 0, 1835025, 0, 0, 1835026, 0, 65536, 1835027, 0, 65537, 1835028, 0, 65537, 1835029, 0, 2, 1835030, 0, 1, 1835031, 0, 2, 1835032, 0, 65537, 1835033, 0, 65537, 1835034, 0, 65537, 1835035, 0, 65537, 1835036, 0, 131072, 1835037, 0, 65537, 1835038, 0, 0, 1835040, 0, 0, 1835041, 1, 65536, 1835042, 1, 196609, 1835043, 1, 196608, 1835044, 1, 65537, 1835045, 1, 65538, 1835046, 0, 0, 1835047, 0, 65537, 1835048, 0, 1, 1835049, 0, 65537, 1835050, 0, 65537, 1835051, 0, 65536, 1835052, 0, 196608, 1835053, 0, 65537, 1835054, 0, 65536, 1835055, 0, 0, 1900545, 0, 0, 1900546, 0, 65537, 1900547, 0, 65536, 1900548, 0, 65537, 1900549, 0, 65537, 1900550, 0, 65537, 1900551, 0, 65537, 1900552, 0, 131074, 1900553, 0, 0, 1900554, 1, 65536, 1900555, 1, 65538, 1900556, 0, 0, 1900557, 1, 65536, 1900558, 1, 65538, 1900559, 0, 0, 1900561, 0, 0, 1900562, 0, 65537, 1900563, 0, 65537, 1900564, 0, 65537, 1900565, 0, 131072, 1900566, 0, 65537, 1900567, 0, 65537, 1900568, 0, 131072, 1900569, 0, 65537, 1900570, 0, 65537, 1900571, 0, 65537, 1900572, 0, 65537, 1900573, 0, 65537, 1900574, 0, 0, 1900576, 0, 0, 1900577, 1, 65536, 1900578, 1, 65537, 1900579, 1, 65537, 1900580, 1, 196609, 1900581, 1, 65538, 1900582, 0, 0, 1900583, 0, 65537, 1900584, 0, 65537, 1900585, 0, 65537, 1900586, 0, 65537, 1900587, 0, 65537, 1900588, 0, 65537, 1900589, 0, 65537, 1900590, 0, 65537, 1900591, 0, 0, 1966081, 0, 0, 1966082, 0, 65537, 1966083, 0, 1, 1966084, 0, 65537, 1966085, 0, 65537, 1966086, 0, 65537, 1966087, 0, 65537, 1966088, 0, 65537, 1966089, 0, 0, 1966090, 1, 131072, 1966091, 1, 131074, 1966092, 0, 0, 1966093, 1, 131072, 1966094, 1, 131074, 1966095, 0, 0, 1966097, 0, 0, 1966098, 0, 65537, 1966099, 0, 131072, 1966100, 0, 65537, 1966101, 0, 2, 1966102, 0, 65536, 1966103, 0, 196608, 1966104, 0, 65536, 1966105, 0, 65537, 1966106, 0, 65536, 1966107, 0, 65538, 1966108, 0, 65537, 1966109, 0, 65537, 1966110, 0, 0, 1966112, 0, 0, 1966113, 1, 131072, 1966114, 1, 131073, 1966115, 1, 131073, 1966116, 1, 131073, 1966117, 1, 131074, 1966118, 0, 0, 1966119, 0, 65537, 1966120, 0, 65536, 1966121, 0, 65537, 1966122, 0, 65536, 1966123, 0, 65538, 1966124, 0, 65537, 1966125, 0, 65538, 1966126, 0, 131072, 1966127, 0, 0, 2031617, 0, 0, 2031618, 0, 0, 2031619, 0, 0, 2031620, 0, 0, 2031621, 0, 0, 2031622, 0, 0, 2031623, 0, 0, 2031624, 0, 0, 2031625, 0, 0, 2031626, 0, 0, 2031627, 0, 0, 2031628, 0, 0, 2031629, 0, 0, 2031630, 0, 0, 2031631, 0, 0, 2031633, 0, 0, 2031634, 0, 0, 2031635, 0, 0, 2031636, 0, 0, 2031637, 0, 0, 2031638, 0, 0, 2031639, 0, 0, 2031640, 0, 0, 2031641, 0, 0, 2031642, 0, 0, 2031643, 0, 0, 2031644, 0, 0, 2031645, 0, 0, 2031646, 0, 0, 2031648, 0, 0, 2031649, 0, 0, 2031650, 0, 0, 2031651, 0, 0, 2031652, 0, 0, 2031653, 0, 0, 2031654, 0, 0, 2031655, 0, 0, 2031656, 0, 0, 2031657, 0, 0, 2031658, 0, 0, 2031659, 0, 0, 2031660, 0, 0, 2031661, 0, 0, 2031662, 0, 0, 2031663, 0, 0, 2162689, 0, 0, 2162690, 0, 0, 2162691, 0, 0, 2162692, 0, 0, 2162693, 0, 0, 2162694, 0, 0, 2162695, 0, 0, 2162696, 0, 0, 2162697, 0, 0, 2162698, 0, 0, 2162699, 0, 0, 2162700, 0, 0, 2162701, 0, 0, 2162702, 0, 0, 2162703, 0, 0, 2162705, 0, 0, 2162706, 0, 0, 2162707, 0, 0, 2162708, 0, 0, 2162709, 0, 0, 2162710, 0, 0, 2162711, 0, 0, 2162712, 0, 0, 2162713, 0, 0, 2162714, 0, 0, 2162715, 0, 0, 2162716, 0, 0, 2162717, 0, 0, 2162718, 0, 0, 2162720, 0, 0, 2162721, 0, 0, 2162722, 0, 0, 2162723, 0, 0, 2162724, 0, 0, 2162725, 0, 0, 2162726, 0, 0, 2162727, 0, 0, 2162728, 0, 0, 2162729, 0, 0, 2162730, 0, 0, 2162731, 0, 0, 2162732, 0, 0, 2162733, 0, 0, 2162734, 0, 0, 2162735, 0, 0, 2228225, 0, 0, 2228226, 0, 65537, 2228227, 0, 65536, 2228228, 0, 196609, 2228229, 0, 65537, 2228230, 0, 65537, 2228231, 0, 65536, 2228232, 0, 65537, 2228233, 0, 1, 2228234, 0, 65537, 2228235, 0, 65537, 2228236, 0, 65537, 2228237, 0, 65537, 2228238, 0, 65537, 2228239, 0, 0, 2228241, 0, 0, 2228242, 0, 65537, 2228243, 0, 131072, 2228244, 0, 65537, 2228245, 0, 65537, 2228246, 0, 65537, 2228247, 0, 65537, 2228248, 0, 131072, 2228249, 0, 65537, 2228250, 0, 65537, 2228251, 0, 65537, 2228252, 0, 131072, 2228253, 0, 65537, 2228254, 0, 0, 2228256, 0, 0, 2228257, 0, 131074, 2228258, 0, 65536, 2228259, 0, 1, 2228260, 0, 65536, 2228261, 0, 65537, 2228262, 0, 65537, 2228263, 0, 65536, 2228264, 0, 65537, 2228265, 0, 131072, 2228266, 0, 1, 2228267, 0, 65537, 2228268, 0, 65537, 2228269, 0, 65538, 2228270, 0, 131072, 2228271, 0, 0, 2293761, 0, 0, 2293762, 0, 65537, 2293763, 0, 131074, 2293764, 0, 196610, 2293765, 0, 65537, 2293766, 0, 131072, 2293767, 0, 65537, 2293768, 0, 131074, 2293769, 0, 65537, 2293770, 0, 65537, 2293771, 0, 131073, 2293772, 0, 65537, 2293773, 0, 196609, 2293774, 0, 65537, 2293775, 0, 0, 2293777, 0, 0, 2293778, 0, 65537, 2293779, 0, 65537, 2293780, 0, 131073, 2293781, 0, 65537, 2293782, 0, 65537, 2293783, 0, 65537, 2293784, 0, 65537, 2293785, 0, 65537, 2293786, 0, 65537, 2293787, 0, 1, 2293788, 0, 65537, 2293789, 0, 65537, 2293790, 0, 0, 2293792, 0, 0, 2293793, 0, 0, 2293794, 0, 0, 2293795, 0, 0, 2293796, 0, 0, 2293797, 0, 65537, 2293798, 0, 65537, 2293799, 0, 131072, 2293800, 0, 65537, 2293801, 0, 65537, 2293802, 0, 65537, 2293803, 0, 196610, 2293804, 0, 1, 2293805, 0, 65537, 2293806, 0, 65537, 2293807, 0, 0, 2359297, 0, 0, 2359298, 0, 65537, 2359299, 0, 65537, 2359300, 0, 65537, 2359301, 0, 65537, 2359302, 0, 1, 2359303, 0, 65537, 2359304, 0, 65537, 2359305, 0, 65537, 2359306, 0, 65536, 2359307, 0, 65537, 2359308, 0, 131072, 2359309, 0, 65537, 2359310, 0, 1, 2359311, 0, 0, 2359313, 0, 0, 2359314, 0, 65537, 2359315, 0, 0, 2359316, 0, 0, 2359317, 0, 0, 2359318, 0, 0, 2359319, 0, 65537, 2359320, 0, 65537, 2359321, 0, 0, 2359322, 0, 0, 2359323, 0, 0, 2359324, 0, 0, 2359325, 0, 65537, 2359326, 0, 0, 2359328, 0, 0, 2359329, 1, 0, 2359330, 1, 1, 2359331, 1, 2, 2359332, 0, 0, 2359333, 0, 65537, 2359334, 0, 65537, 2359335, 0, 131072, 2359336, 0, 196608, 2359337, 0, 65538, 2359338, 0, 0, 2359339, 0, 65537, 2359340, 0, 65537, 2359341, 0, 65537, 2359342, 0, 65537, 2359343, 0, 0, 2424833, 0, 0, 2424834, 0, 65537, 2424835, 0, 1, 2424836, 0, 65537, 2424837, 0, 65537, 2424838, 0, 0, 2424839, 0, 65536, 2424840, 0, 65537, 2424841, 0, 65537, 2424842, 0, 65536, 2424843, 0, 1, 2424844, 0, 65537, 2424845, 0, 65537, 2424846, 0, 65537, 2424847, 0, 0, 2424849, 0, 0, 2424850, 0, 0, 2424851, 0, 0, 2424852, 1, 0, 2424853, 1, 2, 2424854, 0, 0, 2424855, 0, 65538, 2424856, 0, 65537, 2424857, 0, 0, 2424858, 1, 0, 2424859, 1, 2, 2424860, 0, 0, 2424861, 0, 0, 2424862, 0, 0, 2424864, 0, 0, 2424865, 1, 131072, 2424866, 1, 131073, 2424867, 1, 131074, 2424868, 0, 0, 2424869, 0, 0, 2424870, 0, 0, 2424871, 0, 131072, 2424872, 0, 65537, 2424873, 0, 196609, 2424874, 0, 65537, 2424875, 0, 65537, 2424876, 0, 65537, 2424877, 0, 65537, 2424878, 0, 65537, 2424879, 0, 0, 2490369, 0, 0, 2490370, 0, 65537, 2490371, 0, 65537, 2490372, 0, 131074, 2490373, 0, 65537, 2490374, 0, 196610, 2490375, 0, 65537, 2490376, 0, 65537, 2490377, 0, 65537, 2490378, 0, 65537, 2490379, 0, 65537, 2490380, 0, 1, 2490381, 0, 1, 2490382, 0, 65537, 2490383, 0, 0, 2490385, 0, 0, 2490386, 1, 0, 2490387, 1, 1, 2490388, 1, 65540, 2490389, 1, 65538, 2490390, 0, 0, 2490391, 0, 65537, 2490392, 0, 65537, 2490393, 0, 0, 2490394, 1, 65536, 2490395, 1, 65539, 2490396, 1, 1, 2490397, 1, 2, 2490398, 0, 0, 2490400, 1, 0, 2490401, 1, 2, 2490402, 0, 0, 2490403, 0, 0, 2490404, 1, 0, 2490405, 1, 2, 2490406, 0, 0, 2490407, 0, 65537, 2490408, 0, 65537, 2490409, 0, 65537, 2490410, 0, 65537, 2490411, 0, 65537, 2490412, 0, 65537, 2490413, 0, 65537, 2490414, 0, 65537, 2490415, 0, 0, 2555905, 0, 0, 2555906, 0, 1, 2555907, 0, 65537, 2555908, 0, 65537, 2555909, 0, 65536, 2555910, 0, 65537, 2555911, 0, 65537, 2555912, 0, 0, 2555913, 0, 0, 2555914, 0, 0, 2555915, 0, 0, 2555916, 0, 65537, 2555917, 0, 65537, 2555918, 0, 131072, 2555919, 0, 0, 2555921, 0, 0, 2555922, 1, 131072, 2555923, 1, 131073, 2555924, 1, 131073, 2555925, 1, 131074, 2555926, 0, 0, 2555927, 0, 65536, 2555928, 0, 65537, 2555929, 0, 0, 2555930, 1, 131072, 2555931, 1, 131073, 2555932, 1, 131073, 2555933, 1, 131074, 2555934, 0, 0, 2555936, 1, 131072, 2555937, 1, 196612, 2555938, 1, 1, 2555939, 1, 1, 2555940, 1, 65540, 2555941, 1, 65538, 2555942, 0, 0, 2555943, 0, 0, 2555944, 0, 1, 2555945, 0, 65537, 2555946, 0, 65537, 2555947, 0, 65537, 2555948, 0, 65537, 2555949, 0, 65537, 2555950, 0, 65537, 2555951, 0, 0, 2621441, 0, 0, 2621442, 0, 65537, 2621443, 0, 1, 2621444, 0, 65537, 2621445, 0, 65537, 2621446, 0, 2, 2621447, 0, 65537, 2621448, 0, 0, 2621449, 1, 0, 2621450, 1, 2, 2621451, 0, 0, 2621452, 0, 65537, 2621453, 0, 65537, 2621454, 0, 65537, 2621455, 0, 0, 2621457, 0, 0, 2621458, 0, 0, 2621459, 0, 0, 2621460, 0, 0, 2621461, 0, 0, 2621462, 0, 0, 2621463, 0, 1, 2621464, 0, 65537, 2621465, 0, 0, 2621466, 0, 0, 2621467, 0, 0, 2621468, 0, 0, 2621469, 0, 0, 2621470, 0, 0, 2621472, 0, 0, 2621473, 1, 65536, 2621474, 1, 3, 2621475, 1, 131073, 2621476, 1, 131073, 2621477, 1, 131075, 2621478, 1, 2, 2621479, 0, 0, 2621480, 0, 1, 2621481, 0, 65537, 2621482, 0, 65537, 2621483, 0, 1, 2621484, 0, 65537, 2621485, 0, 131072, 2621486, 0, 65537, 2621487, 0, 0, 2686977, 0, 0, 2686978, 0, 65537, 2686979, 0, 65537, 2686980, 0, 65537, 2686981, 0, 131073, 2686982, 0, 131072, 2686983, 0, 65537, 2686984, 0, 0, 2686985, 1, 131072, 2686986, 1, 131074, 2686987, 0, 0, 2686988, 0, 65537, 2686989, 0, 65537, 2686990, 0, 65537, 2686991, 0, 0, 2686993, 0, 0, 2686994, 0, 65537, 2686995, 0, 65536, 2686996, 0, 65537, 2686997, 0, 65537, 2686998, 0, 65537, 2686999, 0, 65537, 2687000, 0, 65537, 2687001, 0, 65537, 2687002, 0, 65537, 2687003, 0, 65537, 2687004, 0, 65537, 2687005, 0, 1, 2687006, 0, 0, 2687008, 0, 0, 2687009, 1, 131072, 2687010, 1, 131074, 2687011, 0, 0, 2687012, 0, 0, 2687013, 1, 65536, 2687014, 1, 65538, 2687015, 0, 0, 2687016, 0, 65537, 2687017, 0, 65537, 2687018, 0, 65537, 2687019, 0, 65537, 2687020, 0, 65537, 2687021, 0, 0, 2687022, 0, 131072, 2687023, 0, 0, 2752513, 0, 0, 2752514, 0, 65537, 2752515, 0, 131072, 2752516, 0, 65537, 2752517, 0, 65537, 2752518, 0, 65536, 2752519, 0, 65537, 2752520, 0, 0, 2752521, 0, 0, 2752522, 0, 0, 2752523, 0, 0, 2752524, 0, 65537, 2752525, 0, 65537, 2752526, 0, 65537, 2752527, 0, 0, 2752529, 0, 0, 2752530, 0, 65537, 2752531, 0, 65537, 2752532, 0, 65537, 2752533, 0, 65537, 2752534, 0, 65536, 2752535, 0, 2, 2752536, 0, 65537, 2752537, 0, 196610, 2752538, 0, 65537, 2752539, 0, 65537, 2752540, 0, 65537, 2752541, 0, 65537, 2752542, 0, 0, 2752544, 0, 0, 2752545, 0, 0, 2752546, 1, 0, 2752547, 1, 2, 2752548, 0, 0, 2752549, 1, 65536, 2752550, 1, 65538, 2752551, 0, 0, 2752552, 0, 0, 2752553, 0, 65537, 2752554, 0, 65537, 2752555, 0, 65536, 2752556, 0, 1, 2752557, 0, 65537, 2752558, 0, 65537, 2752559, 0, 0, 2818049, 0, 0, 2818050, 0, 65537, 2818051, 0, 65537, 2818052, 0, 65537, 2818053, 0, 65537, 2818054, 0, 65537, 2818055, 0, 65537, 2818056, 0, 131073, 2818057, 0, 65537, 2818058, 0, 65537, 2818059, 0, 65537, 2818060, 0, 65537, 2818061, 0, 131072, 2818062, 0, 0, 2818063, 0, 0, 2818065, 0, 0, 2818066, 0, 65537, 2818067, 0, 65537, 2818068, 0, 65536, 2818069, 0, 65537, 2818070, 0, 65537, 2818071, 0, 65537, 2818072, 0, 65537, 2818073, 0, 65537, 2818074, 0, 1, 2818075, 0, 65537, 2818076, 0, 1, 2818077, 0, 196608, 2818078, 0, 0, 2818080, 0, 0, 2818081, 1, 0, 2818082, 1, 65540, 2818083, 1, 65538, 2818084, 0, 0, 2818085, 1, 65536, 2818086, 1, 65539, 2818087, 1, 2, 2818088, 0, 0, 2818089, 0, 65537, 2818090, 0, 65536, 2818091, 0, 65537, 2818092, 0, 131072, 2818093, 0, 65536, 2818094, 0, 65537, 2818095, 0, 0, 2883585, 0, 0, 2883586, 0, 65537, 2883587, 0, 196608, 2883588, 0, 65537, 2883589, 0, 65536, 2883590, 0, 65537, 2883591, 0, 65537, 2883592, 0, 65537, 2883593, 0, 65537, 2883594, 0, 65537, 2883595, 0, 1, 2883596, 0, 131072, 2883597, 0, 65537, 2883598, 0, 131072, 2883599, 0, 0, 2883601, 0, 0, 2883602, 0, 65537, 2883603, 0, 65537, 2883604, 0, 65537, 2883605, 0, 65537, 2883606, 0, 65537, 2883607, 0, 1, 2883608, 0, 65537, 2883609, 0, 65537, 2883610, 0, 65537, 2883611, 0, 65538, 2883612, 0, 65537, 2883613, 0, 65537, 2883614, 0, 0, 2883616, 0, 0, 2883617, 1, 131072, 2883618, 1, 131073, 2883619, 1, 196612, 2883620, 1, 1, 2883621, 1, 131076, 2883622, 1, 131073, 2883623, 1, 131074, 2883624, 0, 0, 2883625, 0, 0, 2883626, 0, 0, 2883627, 0, 0, 2883628, 0, 0, 2883629, 0, 0, 2883630, 0, 0, 2883631, 0, 0, 2949121, 0, 0, 2949122, 0, 65537, 2949123, 0, 65537, 2949124, 0, 65538, 2949125, 0, 65537, 2949126, 0, 65537, 2949127, 0, 196608, 2949128, 0, 1, 2949129, 0, 65537, 2949130, 0, 65537, 2949131, 0, 65537, 2949132, 0, 65537, 2949133, 0, 65537, 2949134, 0, 196609, 2949135, 0, 0, 2949137, 0, 0, 2949138, 0, 65537, 2949139, 0, 65537, 2949140, 0, 65537, 2949141, 0, 65537, 2949142, 0, 1, 2949143, 0, 65537, 2949144, 0, 65537, 2949145, 0, 65537, 2949146, 0, 65537, 2949147, 0, 65538, 2949148, 0, 65537, 2949149, 0, 65537, 2949150, 0, 0, 2949152, 0, 0, 2949153, 0, 0, 2949154, 0, 0, 2949155, 1, 65536, 2949156, 1, 196608, 2949157, 1, 65538, 2949158, 0, 0, 2949159, 1, 0, 2949160, 1, 2, 2949161, 0, 0, 2949162, 0, 0, 2949163, 1, 0, 2949164, 1, 1, 2949165, 1, 1, 2949166, 1, 1, 2949167, 1, 2, 3014657, 0, 0, 3014658, 0, 65537, 3014659, 0, 65536, 3014660, 0, 65537, 3014661, 0, 65537, 3014662, 0, 65537, 3014663, 0, 1, 3014664, 0, 65537, 3014665, 0, 65537, 3014666, 0, 65537, 3014667, 0, 65537, 3014668, 0, 65537, 3014669, 0, 65537, 3014670, 0, 65537, 3014671, 0, 0, 3014673, 0, 0, 3014674, 0, 65537, 3014675, 0, 1, 3014676, 0, 65537, 3014677, 0, 65537, 3014678, 0, 65536, 3014679, 0, 65537, 3014680, 0, 65537, 3014681, 0, 65537, 3014682, 0, 65537, 3014683, 0, 65537, 3014684, 0, 65537, 3014685, 0, 65537, 3014686, 0, 0, 3014688, 0, 0, 3014689, 0, 65537, 3014690, 0, 0, 3014691, 1, 131072, 3014692, 1, 131073, 3014693, 1, 131074, 3014694, 0, 0, 3014695, 1, 65536, 3014696, 1, 65539, 3014697, 1, 1, 3014698, 1, 1, 3014699, 1, 65540, 3014700, 1, 196608, 3014701, 1, 65537, 3014702, 1, 196608, 3014703, 1, 65538, 3080193, 0, 0, 3080194, 0, 0, 3080195, 0, 0, 3080196, 0, 0, 3080197, 0, 0, 3080198, 0, 0, 3080199, 0, 0, 3080200, 0, 0, 3080201, 0, 0, 3080202, 0, 0, 3080203, 0, 0, 3080204, 0, 0, 3080205, 0, 0, 3080206, 0, 0, 3080207, 0, 0, 3080209, 0, 0, 3080210, 0, 0, 3080211, 0, 0, 3080212, 0, 0, 3080213, 0, 0, 3080214, 0, 0, 3080215, 0, 0, 3080216, 0, 0, 3080217, 0, 0, 3080218, 0, 0, 3080219, 0, 0, 3080220, 0, 0, 3080221, 0, 0, 3080222, 0, 0, 3080224, 0, 0, 3080225, 0, 0, 3080226, 0, 0, 3080227, 0, 0, 3080228, 0, 0, 3080229, 0, 0, 3080230, 0, 0, 3080231, 1, 131072, 3080232, 1, 131073, 3080233, 1, 131073, 3080234, 1, 131073, 3080235, 1, 131073, 3080236, 1, 131073, 3080237, 1, 131073, 3080238, 1, 131073, 3080239, 1, 131074 )

[node name="Navigation2D" type="Navigation2D" parent="."]
visible = false

[node name="NavigationPolygonInstance" type="NavigationPolygonInstance" parent="Navigation2D"]
visible = false
navpoly = SubResource( 1 )

[node name="YSort" type="YSort" parent="."]

[node name="StructureMap" type="TileMap" parent="YSort"]
scale = Vector2( 4, 4 )
tile_set = ExtResource( 3 )
cell_size = Vector2( 8, 8 )
cell_quadrant_size = 8
cell_y_sort = true
format = 1
tile_data = PoolIntArray( 65537, 1, 0, 65538, 1, 0, 65539, 1, 0, 65540, 1, 0, 65541, 1, 0, 65542, 1, 0, 65543, 1, 0, 65544, 1, 0, 65545, 1, 0, 65546, 1, 0, 65547, 1, 0, 65548, 1, 0, 65549, 1, 0, 65550, 1, 0, 65551, 1, 0, 65552, 1, 0, 65553, 1, 0, 65554, 1, 0, 65555, 1, 0, 65556, 1, 0, 65557, 1, 0, 65558, 1, 0, 65559, 1, 0, 65560, 1, 0, 65561, 1, 0, 65562, 1, 0, 65563, 1, 0, 65564, 1, 0, 65565, 1, 0, 65566, 1, 0, 65567, 1, 0, 65568, 1, 0, 65569, 1, 0, 65570, 1, 0, 65571, 1, 0, 65572, 1, 0, 65573, 1, 0, 65574, 1, 0, 65575, 1, 0, 65576, 1, 0, 65577, 1, 0, 65578, 1, 0, 65579, 1, 0, 65580, 1, 0, 65581, 1, 0, 65582, 1, 0, 65583, 1, 0, 65584, 1, 0, 65585, 1, 0, 65586, 1, 0, 65587, 1, 0, 65588, 1, 0, 65589, 1, 0, 65590, 1, 0, 65591, 1, 0, 65592, 1, 0, 65593, 1, 0, 65594, 1, 0, 65595, 1, 0, 65596, 1, 0, 65597, 1, 0, 65598, 1, 0, 65599, 1, 0, 65600, 1, 0, 65601, 1, 0, 65602, 1, 0, 65603, 1, 0, 65604, 1, 0, 65605, 1, 0, 65606, 1, 0, 65607, 1, 0, 65608, 1, 0, 65609, 1, 0, 65610, 1, 0, 65611, 1, 0, 65612, 1, 0, 65613, 1, 0, 65614, 1, 0, 65615, 1, 0, 65616, 1, 0, 65617, 1, 0, 65618, 1, 0, 65619, 1, 0, 65620, 1, 0, 65621, 1, 0, 65622, 1, 0, 65623, 1, 0, 65624, 1, 0, 65625, 1, 0, 65626, 1, 0, 65627, 1, 0, 65628, 1, 0, 65629, 1, 0, 65630, 1, 0, 65631, 1, 0, 65632, 1, 0, 131073, 1, 0, 131168, 1, 0, 131190, 0, 0, 131191, 0, 0, 131192, 0, 0, 131193, 0, 0, 131194, 0, 0, 196609, 1, 0, 196691, 0, 0, 196692, 0, 0, 196693, 0, 0, 196694, 0, 0, 196695, 0, 0, 196696, 0, 0, 196697, 0, 0, 196698, 0, 0, 196699, 0, 0, 196700, 0, 0, 196704, 1, 0, 196721, 0, 0, 196722, 0, 0, 196723, 0, 0, 196724, 0, 0, 196725, 0, 0, 262145, 1, 0, 262227, 0, 0, 262236, 0, 0, 262240, 1, 0, 262246, 0, 0, 262267, 0, 0, 327681, 1, 0, 327732, 0, 0, 327733, 0, 0, 327734, 0, 0, 327735, 0, 0, 327736, 0, 0, 327737, 0, 0, 327763, 0, 0, 327772, 0, 0, 327776, 1, 0, 327783, 0, 0, 327784, 0, 0, 327785, 0, 0, 327803, 0, 0, 393217, 1, 0, 393268, 0, 0, 393273, 0, 0, 393287, 0, 0, 393288, 0, 0, 393289, 0, 0, 393290, 0, 0, 393291, 0, 0, 393292, 0, 0, 393293, 0, 0, 393294, 0, 0, 393295, 0, 0, 393299, 0, 0, 393308, 0, 0, 393312, 1, 0, 393318, 0, 0, 393319, 0, 0, 393329, 0, 0, 393340, 0, 0, 458753, 1, 0, 458792, 0, 0, 458793, 0, 0, 458794, 0, 0, 458795, 0, 0, 458796, 0, 0, 458797, 0, 0, 458798, 0, 0, 458804, 0, 0, 458809, 0, 0, 458823, 0, 0, 458831, 0, 0, 458835, 0, 0, 458844, 0, 0, 458848, 1, 0, 458853, 0, 0, 458856, 0, 0, 458866, 0, 0, 458876, 0, 0, 524289, 1, 0, 524340, 0, 0, 524345, 0, 0, 524359, 0, 0, 524367, 0, 0, 524371, 0, 0, 524380, 0, 0, 524384, 1, 0, 524386, 0, 0, 524387, 0, 0, 524388, 0, 0, 524393, 0, 0, 524403, 0, 0, 524413, 0, 0, 589825, 1, 0, 589876, 0, 0, 589881, 0, 0, 589895, 0, 0, 589903, 0, 0, 589907, 0, 0, 589916, 0, 0, 589920, 1, 0, 589921, 0, 0, 589922, 0, 0, 589930, 0, 0, 589940, 0, 0, 589941, 0, 0, 589944, 0, 0, 589949, 0, 0, 655361, 1, 0, 655400, 0, 0, 655412, 0, 0, 655417, 0, 0, 655431, 0, 0, 655439, 0, 0, 655443, 0, 0, 655452, 0, 0, 655456, 1, 0, 655466, 0, 0, 655472, 0, 0, 655473, 0, 0, 655474, 0, 0, 655475, 0, 0, 655476, 0, 0, 655480, 0, 0, 655486, 0, 0, 720897, 1, 0, 720936, 0, 0, 720967, 0, 0, 720975, 0, 0, 720979, 0, 0, 720988, 0, 0, 720992, 1, 0, 721003, 0, 0, 721004, 0, 0, 721005, 0, 0, 721006, 0, 0, 721007, 0, 0, 721013, 0, 0, 721015, 0, 0, 721024, 0, 0, 786433, 1, 0, 786438, 0, 0, 786439, 0, 0, 786440, 0, 0, 786441, 0, 0, 786442, 0, 0, 786443, 0, 0, 786444, 0, 0, 786445, 0, 0, 786446, 0, 0, 786447, 0, 0, 786448, 0, 0, 786449, 0, 0, 786450, 0, 0, 786451, 0, 0, 786472, 0, 0, 786503, 0, 0, 786504, 0, 0, 786505, 0, 0, 786506, 0, 0, 786508, 0, 0, 786509, 0, 0, 786510, 0, 0, 786511, 0, 0, 786515, 0, 0, 786516, 0, 0, 786517, 0, 0, 786518, 0, 0, 786519, 0, 0, 786520, 0, 0, 786522, 0, 0, 786523, 0, 0, 786524, 0, 0, 786528, 1, 0, 786537, 0, 0, 786538, 0, 0, 786539, 0, 0, 786540, 0, 0, 786550, 0, 0, 786551, 0, 0, 786561, 0, 0, 851969, 1, 0, 851974, 0, 0, 851987, 0, 0, 852008, 0, 0, 852064, 1, 0, 852086, 0, 0, 852087, 0, 0, 852098, 0, 0, 852100, 0, 0, 852101, 0, 0, 917505, 1, 0, 917510, 0, 0, 917523, 0, 0, 917544, 0, 0, 917545, 0, 0, 917546, 0, 0, 917547, 0, 0, 917548, 0, 0, 917549, 0, 0, 917600, 1, 0, 917622, 0, 0, 917624, 0, 0, 917634, 0, 0, 917635, 0, 0, 983041, 1, 0, 983046, 0, 0, 983059, 0, 0, 983089, 0, 0, 983090, 0, 0, 983091, 0, 0, 983092, 0, 0, 983136, 1, 0, 983158, 0, 0, 983163, 0, 0, 983167, 0, 0, 983168, 0, 0, 983169, 0, 0, 983172, 0, 0, 983180, 0, 0, 983181, 0, 0, 1048577, 1, 0, 1048582, 0, 0, 1048595, 0, 0, 1048625, 0, 0, 1048672, 1, 0, 1048679, 0, 0, 1048693, 0, 0, 1048699, 0, 0, 1048701, 0, 0, 1048702, 0, 0, 1048709, 0, 0, 1048714, 0, 0, 1048715, 0, 0, 1114113, 1, 0, 1114118, 0, 0, 1114131, 0, 0, 1114161, 0, 0, 1114208, 1, 0, 1114216, 0, 0, 1114217, 0, 0, 1114227, 0, 0, 1114229, 0, 0, 1114235, 0, 0, 1114246, 0, 0, 1114247, 0, 0, 1114248, 0, 0, 1114249, 0, 0, 1179649, 1, 0, 1179654, 0, 0, 1179667, 0, 0, 1179697, 0, 0, 1179698, 0, 0, 1179699, 0, 0, 1179700, 0, 0, 1179744, 1, 0, 1179745, 0, 0, 1179746, 0, 0, 1179758, 0, 0, 1179764, 0, 0, 1179771, 0, 0, 1179781, 0, 0, 1179782, 0, 0, 1179788, 0, 0, 1245185, 1, 0, 1245190, 0, 0, 1245203, 0, 0, 1245258, 0, 0, 1245259, 0, 0, 1245260, 0, 0, 1245261, 0, 0, 1245262, 0, 0, 1245263, 0, 0, 1245264, 0, 0, 1245265, 0, 0, 1245266, 0, 0, 1245267, 0, 0, 1245268, 0, 0, 1245269, 0, 0, 1245270, 0, 0, 1245271, 0, 0, 1245272, 0, 0, 1245273, 0, 0, 1245274, 0, 0, 1245275, 0, 0, 1245276, 0, 0, 1245280, 1, 0, 1245283, 0, 0, 1245284, 0, 0, 1245294, 0, 0, 1245300, 0, 0, 1245301, 0, 0, 1245315, 0, 0, 1245316, 0, 0, 1245324, 0, 0, 1310721, 1, 0, 1310726, 0, 0, 1310739, 0, 0, 1310794, 0, 0, 1310812, 0, 0, 1310816, 1, 0, 1310838, 0, 0, 1310841, 0, 0, 1310855, 0, 0, 1310860, 0, 0, 1376257, 1, 0, 1376262, 0, 0, 1376275, 0, 0, 1376292, 0, 0, 1376293, 0, 0, 1376294, 0, 0, 1376295, 0, 0, 1376304, 0, 0, 1376305, 0, 0, 1376306, 0, 0, 1376307, 0, 0, 1376308, 0, 0, 1376309, 0, 0, 1376310, 0, 0, 1376311, 0, 0, 1376312, 0, 0, 1376313, 0, 0, 1376314, 0, 0, 1376315, 0, 0, 1376316, 0, 0, 1376330, 0, 0, 1376348, 0, 0, 1376352, 1, 0, 1376375, 0, 0, 1376376, 0, 0, 1376384, 0, 0, 1376391, 0, 0, 1376396, 0, 0, 1441793, 1, 0, 1441798, 0, 0, 1441811, 0, 0, 1441812, 0, 0, 1441813, 0, 0, 1441814, 0, 0, 1441815, 0, 0, 1441816, 0, 0, 1441817, 0, 0, 1441818, 0, 0, 1441819, 0, 0, 1441820, 0, 0, 1441828, 0, 0, 1441831, 0, 0, 1441840, 0, 0, 1441846, 0, 0, 1441852, 0, 0, 1441866, 0, 0, 1441884, 0, 0, 1441888, 1, 0, 1441907, 0, 0, 1441908, 0, 0, 1441911, 0, 0, 1441912, 0, 0, 1441921, 0, 0, 1441922, 0, 0, 1441927, 0, 0, 1441929, 0, 0, 1441932, 0, 0, 1507329, 1, 0, 1507334, 0, 0, 1507356, 0, 0, 1507364, 0, 0, 1507367, 0, 0, 1507376, 0, 0, 1507382, 0, 0, 1507388, 0, 0, 1507402, 0, 0, 1507420, 0, 0, 1507424, 1, 0, 1507434, 0, 0, 1507445, 0, 0, 1507446, 0, 0, 1507447, 0, 0, 1507449, 0, 0, 1507457, 0, 0, 1507459, 0, 0, 1507460, 0, 0, 1507462, 0, 0, 1507466, 0, 0, 1507468, 0, 0, 1572865, 1, 0, 1572870, 0, 0, 1572892, 0, 0, 1572900, 0, 0, 1572903, 0, 0, 1572907, 0, 0, 1572908, 0, 0, 1572909, 0, 0, 1572910, 0, 0, 1572911, 0, 0, 1572912, 0, 0, 1572918, 0, 0, 1572924, 0, 0, 1572938, 0, 0, 1572956, 0, 0, 1572960, 1, 0, 1572971, 0, 0, 1572982, 0, 0, 1572984, 0, 0, 1572985, 0, 0, 1572986, 0, 0, 1572992, 0, 0, 1572997, 0, 0, 1572998, 0, 0, 1573003, 0, 0, 1573004, 0, 0, 1638401, 1, 0, 1638406, 0, 0, 1638428, 0, 0, 1638443, 0, 0, 1638448, 0, 0, 1638454, 0, 0, 1638460, 0, 0, 1638474, 0, 0, 1638492, 0, 0, 1638496, 1, 0, 1638507, 0, 0, 1638517, 0, 0, 1638523, 0, 0, 1638524, 0, 0, 1638527, 0, 0, 1638534, 0, 0, 1638535, 0, 0, 1638540, 0, 0, 1703937, 1, 0, 1703942, 0, 0, 1703964, 0, 0, 1703979, 0, 0, 1703984, 0, 0, 1703990, 0, 0, 1703996, 0, 0, 1704010, 0, 0, 1704028, 0, 0, 1704032, 1, 0, 1704061, 0, 0, 1704062, 0, 0, 1704063, 0, 0, 1704070, 0, 0, 1704077, 0, 0, 1769473, 1, 0, 1769478, 0, 0, 1769500, 0, 0, 1769508, 0, 0, 1769509, 0, 0, 1769510, 0, 0, 1769511, 0, 0, 1769512, 0, 0, 1769515, 0, 0, 1769520, 0, 0, 1769526, 0, 0, 1769532, 0, 0, 1769546, 0, 0, 1769564, 0, 0, 1769568, 1, 0, 1769597, 0, 0, 1769600, 0, 0, 1769601, 0, 0, 1769606, 0, 0, 1769614, 0, 0, 1769617, 0, 0, 1835009, 1, 0, 1835014, 0, 0, 1835036, 0, 0, 1835044, 0, 0, 1835048, 0, 0, 1835051, 0, 0, 1835052, 0, 0, 1835055, 0, 0, 1835056, 0, 0, 1835057, 0, 0, 1835058, 0, 0, 1835060, 0, 0, 1835061, 0, 0, 1835062, 0, 0, 1835063, 0, 0, 1835064, 0, 0, 1835065, 0, 0, 1835067, 0, 0, 1835068, 0, 0, 1835082, 0, 0, 1835100, 0, 0, 1835104, 1, 0, 1835119, 0, 0, 1835139, 0, 0, 1835141, 0, 0, 1835147, 0, 0, 1835151, 0, 0, 1835153, 0, 0, 1900545, 1, 0, 1900550, 0, 0, 1900551, 0, 0, 1900552, 0, 0, 1900553, 0, 0, 1900554, 0, 0, 1900555, 0, 0, 1900556, 0, 0, 1900557, 0, 0, 1900558, 0, 0, 1900559, 0, 0, 1900560, 0, 0, 1900561, 0, 0, 1900562, 0, 0, 1900563, 0, 0, 1900564, 0, 0, 1900565, 0, 0, 1900566, 0, 0, 1900567, 0, 0, 1900568, 0, 0, 1900570, 0, 0, 1900571, 0, 0, 1900572, 0, 0, 1900580, 0, 0, 1900584, 0, 0, 1900618, 0, 0, 1900619, 0, 0, 1900620, 0, 0, 1900621, 0, 0, 1900622, 0, 0, 1900623, 0, 0, 1900624, 0, 0, 1900625, 0, 0, 1900626, 0, 0, 1900628, 0, 0, 1900629, 0, 0, 1900630, 0, 0, 1900631, 0, 0, 1900632, 0, 0, 1900633, 0, 0, 1900634, 0, 0, 1900635, 0, 0, 1900636, 0, 0, 1900640, 1, 0, 1900656, 0, 0, 1900657, 0, 0, 1900659, 0, 0, 1900676, 0, 0, 1900677, 0, 0, 1900682, 0, 0, 1900688, 0, 0, 1966081, 1, 0, 1966116, 0, 0, 1966119, 0, 0, 1966120, 0, 0, 1966176, 1, 0, 1966196, 0, 0, 1966197, 0, 0, 1966213, 0, 0, 1966214, 0, 0, 1966215, 0, 0, 1966218, 0, 0, 1966224, 0, 0, 2031617, 1, 0, 2031712, 1, 0, 2031734, 0, 0, 2031735, 0, 0, 2031752, 0, 0, 2031753, 0, 0, 2031754, 0, 0, 2031759, 0, 0, 2097153, 1, 0, 2097248, 1, 0, 2097288, 0, 0, 2097290, 0, 0, 2097291, 0, 0, 2097295, 0, 0, 2162689, 1, 0, 2162784, 1, 0, 2162824, 0, 0, 2162827, 0, 0, 2162830, 0, 0, 2228225, 1, 0, 2228258, 0, 0, 2228259, 0, 0, 2228260, 0, 0, 2228261, 0, 0, 2228262, 0, 0, 2228263, 0, 0, 2228264, 0, 0, 2228265, 0, 0, 2228266, 0, 0, 2228267, 0, 0, 2228268, 0, 0, 2228269, 0, 0, 2228270, 0, 0, 2228271, 0, 0, 2228272, 0, 0, 2228273, 0, 0, 2228274, 0, 0, 2228275, 0, 0, 2228276, 0, 0, 2228277, 0, 0, 2228278, 0, 0, 2228279, 0, 0, 2228280, 0, 0, 2228281, 0, 0, 2228282, 0, 0, 2228283, 0, 0, 2228284, 0, 0, 2228285, 0, 0, 2228320, 1, 0, 2228356, 0, 0, 2228359, 0, 0, 2228364, 0, 0, 2228366, 0, 0, 2293761, 1, 0, 2293794, 0, 0, 2293803, 0, 0, 2293812, 0, 0, 2293821, 0, 0, 2293856, 1, 0, 2293883, 0, 0, 2293893, 0, 0, 2293894, 0, 0, 2293901, 0, 0, 2359297, 1, 0, 2359298, 1, 0, 2359299, 1, 0, 2359300, 1, 0, 2359301, 1, 0, 2359302, 1, 0, 2359303, 1, 0, 2359304, 1, 0, 2359305, 1, 0, 2359306, 1, 0, 2359307, 1, 0, 2359308, 1, 0, 2359309, 1, 0, 2359310, 1, 0, 2359311, 1, 0, 2359312, 1, 0, 2359313, 1, 0, 2359314, 1, 0, 2359315, 1, 0, 2359330, 0, 0, 2359339, 0, 0, 2359348, 0, 0, 2359357, 0, 0, 2359392, 1, 0, 2359420, 0, 0, 2359430, 0, 0, 2359437, 0, 0, 2424833, 1, 0, 2424851, 1, 0, 2424866, 0, 0, 2424875, 0, 0, 2424884, 0, 0, 2424893, 0, 0, 2424901, 1, 0, 2424902, 1, 0, 2424903, 1, 0, 2424904, 1, 0, 2424905, 1, 0, 2424906, 1, 0, 2424907, 1, 0, 2424908, 1, 0, 2424909, 1, 0, 2424910, 1, 0, 2424911, 1, 0, 2424912, 1, 0, 2424913, 1, 0, 2424914, 1, 0, 2424915, 1, 0, 2424916, 1, 0, 2424917, 1, 0, 2424918, 1, 0, 2424919, 1, 0, 2424920, 1, 0, 2424921, 1, 0, 2424922, 1, 0, 2424923, 1, 0, 2424924, 1, 0, 2424925, 1, 0, 2424926, 1, 0, 2424927, 1, 0, 2424928, 1, 0, 2424929, 1, 0, 2424930, 1, 0, 2424931, 1, 0, 2424932, 1, 0, 2424933, 1, 0, 2424934, 1, 0, 2424935, 1, 0, 2424936, 1, 0, 2424956, 0, 0, 2424965, 0, 0, 2424967, 0, 0, 2424971, 0, 0, 2424974, 0, 0, 2490369, 1, 0, 2490387, 1, 0, 2490402, 0, 0, 2490411, 0, 0, 2490420, 0, 0, 2490429, 0, 0, 2490437, 1, 0, 2490472, 1, 0, 2490493, 0, 0, 2490503, 0, 0, 2490506, 0, 0, 2490511, 0, 0, 2555905, 1, 0, 2555923, 1, 0, 2555938, 0, 0, 2555947, 0, 0, 2555956, 0, 0, 2555965, 0, 0, 2555973, 1, 0, 2556008, 1, 0, 2556040, 0, 0, 2556041, 0, 0, 2556048, 0, 0, 2621441, 1, 0, 2621459, 1, 0, 2621474, 0, 0, 2621483, 0, 0, 2621492, 0, 0, 2621501, 0, 0, 2621509, 1, 0, 2621544, 1, 0, 2621576, 0, 0, 2621577, 0, 0, 2621584, 0, 0, 2686977, 1, 0, 2686995, 1, 0, 2687010, 0, 0, 2687019, 0, 0, 2687028, 0, 0, 2687037, 0, 0, 2687045, 1, 0, 2687080, 1, 0, 2687084, 1, 0, 2687105, 0, 0, 2687111, 0, 0, 2687114, 0, 0, 2687121, 0, 0, 2752513, 1, 0, 2752531, 1, 0, 2752546, 0, 0, 2752547, 0, 0, 2752548, 0, 0, 2752550, 0, 0, 2752551, 0, 0, 2752552, 0, 0, 2752553, 0, 0, 2752554, 0, 0, 2752555, 0, 0, 2752556, 0, 0, 2752557, 0, 0, 2752559, 0, 0, 2752560, 0, 0, 2752561, 0, 0, 2752562, 0, 0, 2752563, 0, 0, 2752564, 0, 0, 2752565, 0, 0, 2752566, 0, 0, 2752568, 0, 0, 2752569, 0, 0, 2752570, 0, 0, 2752571, 0, 0, 2752572, 0, 0, 2752573, 0, 0, 2752581, 1, 0, 2752616, 1, 0, 2752620, 1, 0, 2752636, 0, 0, 2752642, 0, 0, 2752647, 0, 0, 2752655, 0, 0, 2818049, 1, 0, 2818067, 1, 0, 2818117, 1, 0, 2818152, 1, 0, 2818156, 1, 0, 2818172, 0, 0, 2818179, 0, 0, 2818182, 0, 0, 2818190, 0, 0, 2883585, 1, 0, 2883586, 1, 0, 2883587, 1, 0, 2883588, 1, 0, 2883589, 1, 0, 2883590, 1, 0, 2883591, 1, 0, 2883592, 1, 0, 2883593, 1, 0, 2883595, 1, 0, 2883596, 1, 0, 2883597, 1, 0, 2883598, 1, 0, 2883599, 1, 0, 2883600, 1, 0, 2883601, 1, 0, 2883602, 1, 0, 2883603, 1, 0, 2883604, 1, 0, 2883605, 1, 0, 2883606, 1, 0, 2883607, 1, 0, 2883608, 1, 0, 2883609, 1, 0, 2883610, 1, 0, 2883611, 1, 0, 2883612, 1, 0, 2883613, 1, 0, 2883653, 1, 0, 2883688, 1, 0, 2883692, 1, 0, 2883715, 0, 0, 2883717, 0, 0, 2883723, 0, 0, 2883726, 0, 0, 2949121, 1, 0, 2949149, 1, 0, 2949189, 1, 0, 2949190, 1, 0, 2949191, 1, 0, 2949192, 1, 0, 2949193, 1, 0, 2949195, 1, 0, 2949196, 1, 0, 2949197, 1, 0, 2949198, 1, 0, 2949199, 1, 0, 2949200, 1, 0, 2949201, 1, 0, 2949216, 1, 0, 2949217, 1, 0, 2949218, 1, 0, 2949219, 1, 0, 2949221, 1, 0, 2949222, 1, 0, 2949223, 1, 0, 2949224, 1, 0, 2949228, 1, 0, 2949252, 0, 0, 2949260, 0, 0, 2949261, 0, 0, 3014657, 1, 0, 3014685, 1, 0, 3014737, 1, 0, 3014752, 1, 0, 3014764, 1, 0, 3014787, 0, 0, 3014789, 0, 0, 3014797, 0, 0, 3080193, 1, 0, 3080221, 1, 0, 3080273, 1, 0, 3080288, 1, 0, 3080313, 0, 0, 3080326, 0, 0, 3080329, 0, 0, 3080332, 0, 0, 3080334, 0, 0, 3145729, 1, 0, 3145757, 1, 0, 3145809, 1, 0, 3145824, 1, 0, 3145848, 0, 0, 3145862, 0, 0, 3145864, 0, 0, 3145870, 0, 0, 3211265, 1, 0, 3211293, 1, 0, 3211345, 1, 0, 3211360, 1, 0, 3211383, 0, 0, 3211391, 0, 0, 3211399, 0, 0, 3211407, 0, 0, 3276801, 1, 0, 3276829, 1, 0, 3276881, 1, 0, 3276896, 1, 0, 3276908, 1, 0, 3276927, 0, 0, 3276934, 0, 0, 3276936, 0, 0, 3276944, 0, 0, 3342337, 1, 0, 3342338, 1, 0, 3342339, 1, 0, 3342340, 1, 0, 3342341, 1, 0, 3342342, 1, 0, 3342343, 1, 0, 3342344, 1, 0, 3342345, 1, 0, 3342347, 1, 0, 3342348, 1, 0, 3342349, 1, 0, 3342350, 1, 0, 3342351, 1, 0, 3342352, 1, 0, 3342353, 1, 0, 3342354, 1, 0, 3342355, 1, 0, 3342356, 1, 0, 3342357, 1, 0, 3342358, 1, 0, 3342359, 1, 0, 3342360, 1, 0, 3342362, 1, 0, 3342363, 1, 0, 3342364, 1, 0, 3342365, 1, 0, 3342417, 1, 0, 3342432, 1, 0, 3342444, 1, 0, 3342464, 0, 0, 3342469, 0, 0, 3342481, 0, 0, 3407873, 1, 0, 3407891, 1, 0, 3407953, 1, 0, 3407968, 1, 0, 3407980, 1, 0, 3408000, 0, 0, 3408005, 0, 0, 3473409, 1, 0, 3473427, 1, 0, 3473489, 1, 0, 3473504, 1, 0, 3473516, 1, 0, 3473526, 0, 0, 3473537, 0, 0, 3473540, 0, 0, 3473544, 0, 0, 3538945, 1, 0, 3538963, 1, 0, 3539025, 1, 0, 3539040, 1, 0, 3539043, 1, 0, 3539044, 1, 0, 3539045, 1, 0, 3539048, 1, 0, 3539049, 1, 0, 3539050, 1, 0, 3539051, 1, 0, 3539052, 1, 0, 3539062, 0, 0, 3539073, 0, 0, 3539075, 0, 0, 3539081, 0, 0, 3539086, 0, 0, 3539087, 0, 0, 3604481, 1, 0, 3604499, 1, 0, 3604514, 0, 0, 3604515, 0, 0, 3604516, 0, 0, 3604517, 0, 0, 3604518, 0, 0, 3604519, 0, 0, 3604520, 0, 0, 3604521, 0, 0, 3604522, 0, 0, 3604523, 0, 0, 3604524, 0, 0, 3604525, 0, 0, 3604526, 0, 0, 3604527, 0, 0, 3604528, 0, 0, 3604529, 0, 0, 3604530, 0, 0, 3604531, 0, 0, 3604532, 0, 0, 3604533, 0, 0, 3604534, 0, 0, 3604535, 0, 0, 3604536, 0, 0, 3604537, 0, 0, 3604538, 0, 0, 3604539, 0, 0, 3604540, 0, 0, 3604541, 0, 0, 3604561, 1, 0, 3604576, 1, 0, 3604598, 0, 0, 3604610, 0, 0, 3604618, 0, 0, 3604620, 0, 0, 3604621, 0, 0, 3670017, 1, 0, 3670035, 1, 0, 3670050, 0, 0, 3670059, 0, 0, 3670068, 0, 0, 3670077, 0, 0, 3670097, 1, 0, 3670112, 1, 0, 3670145, 0, 0, 3670146, 0, 0, 3670150, 0, 0, 3670154, 0, 0, 3670155, 0, 0, 3735553, 1, 0, 3735571, 1, 0, 3735586, 0, 0, 3735595, 0, 0, 3735604, 0, 0, 3735613, 0, 0, 3735633, 1, 0, 3735648, 1, 0, 3735683, 0, 0, 3735685, 0, 0, 3735692, 0, 0, 3801089, 1, 0, 3801107, 1, 0, 3801122, 0, 0, 3801131, 0, 0, 3801140, 0, 0, 3801149, 0, 0, 3801169, 1, 0, 3801184, 1, 0, 3801219, 0, 0, 3801220, 0, 0, 3801229, 0, 0, 3866625, 1, 0, 3866643, 1, 0, 3866658, 0, 0, 3866667, 0, 0, 3866676, 0, 0, 3866685, 0, 0, 3866705, 1, 0, 3866720, 1, 0, 3866744, 0, 0, 3866756, 0, 0, 3866762, 0, 0, 3932161, 1, 0, 3932179, 1, 0, 3932194, 0, 0, 3932203, 0, 0, 3932212, 0, 0, 3932221, 0, 0, 3932241, 1, 0, 3932256, 1, 0, 3932281, 0, 0, 3932286, 0, 0, 3932291, 0, 0, 3932292, 0, 0, 3932299, 0, 0, 3997697, 1, 0, 3997698, 1, 0, 3997699, 1, 0, 3997700, 1, 0, 3997701, 1, 0, 3997702, 1, 0, 3997703, 1, 0, 3997704, 1, 0, 3997705, 1, 0, 3997706, 1, 0, 3997707, 1, 0, 3997708, 1, 0, 3997709, 1, 0, 3997710, 1, 0, 3997711, 1, 0, 3997712, 1, 0, 3997713, 1, 0, 3997714, 1, 0, 3997715, 1, 0, 3997730, 0, 0, 3997739, 0, 0, 3997748, 0, 0, 3997757, 0, 0, 3997777, 1, 0, 3997778, 1, 0, 3997779, 1, 0, 3997780, 1, 0, 3997781, 1, 0, 3997782, 1, 0, 3997783, 1, 0, 3997784, 1, 0, 3997785, 1, 0, 3997786, 1, 0, 3997787, 1, 0, 3997788, 1, 0, 3997789, 1, 0, 3997790, 1, 0, 3997791, 1, 0, 3997792, 1, 0, 3997822, 0, 0, 3997826, 0, 0, 3997829, 0, 0, 3997833, 0, 0, 3997834, 0, 0, 3997835, 0, 0, 3997836, 0, 0, 3997837, 0, 0, 3997838, 0, 0, 4063233, 1, 0, 4063266, 0, 0, 4063275, 0, 0, 4063284, 0, 0, 4063293, 0, 0, 4063328, 1, 0, 4063359, 0, 0, 4063361, 0, 0, 4063365, 0, 0, 4063372, 0, 0, 4128769, 1, 0, 4128802, 0, 0, 4128803, 0, 0, 4128804, 0, 0, 4128806, 0, 0, 4128807, 0, 0, 4128808, 0, 0, 4128809, 0, 0, 4128810, 0, 0, 4128811, 0, 0, 4128812, 0, 0, 4128813, 0, 0, 4128815, 0, 0, 4128816, 0, 0, 4128817, 0, 0, 4128818, 0, 0, 4128819, 0, 0, 4128820, 0, 0, 4128821, 0, 0, 4128822, 0, 0, 4128824, 0, 0, 4128825, 0, 0, 4128826, 0, 0, 4128827, 0, 0, 4128828, 0, 0, 4128829, 0, 0, 4128864, 1, 0, 4128895, 0, 0, 4128897, 0, 0, 4128908, 0, 0, 4194305, 1, 0, 4194400, 1, 0, 4194432, 0, 0, 4194445, 0, 0, 4259841, 1, 0, 4259936, 1, 0, 4259959, 0, 0, 4259967, 0, 0, 4259968, 0, 0, 4259982, 0, 0, 4325377, 1, 0, 4325472, 1, 0, 4325477, 0, 0, 4325478, 0, 0, 4325479, 0, 0, 4325480, 0, 0, 4325494, 0, 0, 4325504, 0, 0, 4325509, 0, 0, 4325512, 0, 0, 4325518, 0, 0, 4390913, 1, 0, 4390984, 0, 0, 4390985, 0, 0, 4390986, 0, 0, 4390987, 0, 0, 4390988, 0, 0, 4390989, 0, 0, 4390990, 0, 0, 4390991, 0, 0, 4390992, 0, 0, 4390993, 0, 0, 4390994, 0, 0, 4390995, 0, 0, 4390996, 0, 0, 4390997, 0, 0, 4390998, 0, 0, 4390999, 0, 0, 4391000, 0, 0, 4391001, 0, 0, 4391002, 0, 0, 4391003, 0, 0, 4391004, 0, 0, 4391005, 0, 0, 4391008, 1, 0, 4391009, 0, 0, 4391010, 0, 0, 4391011, 0, 0, 4391012, 0, 0, 4391021, 0, 0, 4391030, 0, 0, 4391041, 0, 0, 4391044, 0, 0, 4391048, 0, 0, 4391053, 0, 0, 4391054, 0, 0, 4391055, 0, 0, 4456449, 1, 0, 4456484, 1, 0, 4456485, 1, 0, 4456486, 1, 0, 4456487, 1, 0, 4456488, 1, 0, 4456489, 1, 0, 4456490, 1, 0, 4456491, 1, 0, 4456492, 1, 0, 4456493, 1, 0, 4456494, 1, 0, 4456495, 1, 0, 4456496, 1, 0, 4456497, 1, 0, 4456498, 1, 0, 4456499, 1, 0, 4456500, 1, 0, 4456501, 1, 0, 4456502, 1, 0, 4456503, 1, 0, 4456504, 1, 0, 4456505, 1, 0, 4456506, 1, 0, 4456507, 1, 0, 4456520, 0, 0, 4456541, 0, 0, 4456544, 1, 0, 4456558, 0, 0, 4456571, 0, 0, 4456577, 0, 0, 4456579, 0, 0, 4456584, 0, 0, 4456587, 0, 0, 4456588, 0, 0, 4521985, 1, 0, 4522020, 1, 0, 4522043, 1, 0, 4522056, 0, 0, 4522077, 0, 0, 4522080, 1, 0, 4522095, 0, 0, 4522108, 0, 0, 4522114, 0, 0, 4522120, 0, 0, 4522121, 0, 0, 4522122, 0, 0, 4587521, 1, 0, 4587556, 1, 0, 4587579, 1, 0, 4587592, 0, 0, 4587613, 0, 0, 4587616, 1, 0, 4587625, 0, 0, 4587633, 0, 0, 4587634, 0, 0, 4587635, 0, 0, 4587644, 0, 0, 4587649, 0, 0, 4587650, 0, 0, 4587656, 0, 0, 4653057, 1, 0, 4653092, 1, 0, 4653115, 1, 0, 4653128, 0, 0, 4653149, 0, 0, 4653152, 1, 0, 4653159, 0, 0, 4653160, 0, 0, 4653181, 0, 0, 4653184, 0, 0, 4653188, 0, 0, 4653189, 0, 0, 4718593, 1, 0, 4718628, 1, 0, 4718651, 1, 0, 4718664, 0, 0, 4718665, 0, 0, 4718666, 0, 0, 4718667, 0, 0, 4718669, 0, 0, 4718670, 0, 0, 4718671, 0, 0, 4718672, 0, 0, 4718673, 0, 0, 4718685, 0, 0, 4718688, 1, 0, 4718694, 0, 0, 4718717, 0, 0, 4718719, 0, 0, 4718726, 0, 0, 4718727, 0, 0, 4784129, 1, 0, 4784134, 1, 0, 4784135, 1, 0, 4784136, 1, 0, 4784137, 1, 0, 4784138, 1, 0, 4784139, 1, 0, 4784140, 1, 0, 4784141, 1, 0, 4784142, 1, 0, 4784143, 1, 0, 4784144, 1, 0, 4784145, 1, 0, 4784146, 1, 0, 4784147, 1, 0, 4784148, 1, 0, 4784149, 1, 0, 4784150, 1, 0, 4784151, 1, 0, 4784152, 1, 0, 4784153, 1, 0, 4784154, 1, 0, 4784164, 1, 0, 4784165, 1, 0, 4784166, 1, 0, 4784168, 1, 0, 4784169, 1, 0, 4784170, 1, 0, 4784171, 1, 0, 4784172, 1, 0, 4784179, 1, 0, 4784180, 1, 0, 4784181, 1, 0, 4784182, 1, 0, 4784183, 1, 0, 4784185, 1, 0, 4784186, 1, 0, 4784187, 1, 0, 4784209, 0, 0, 4784221, 0, 0, 4784224, 1, 0, 4784254, 0, 0, 4784260, 0, 0, 4784264, 0, 0, 4784265, 0, 0, 4784266, 0, 0, 4784267, 0, 0, 4849665, 1, 0, 4849670, 1, 0, 4849690, 1, 0, 4849708, 1, 0, 4849715, 1, 0, 4849745, 0, 0, 4849757, 0, 0, 4849760, 1, 0, 4849790, 0, 0, 4849796, 0, 0, 4849799, 0, 0, 4849800, 0, 0, 4849801, 0, 0, 4849802, 0, 0, 4849803, 0, 0, 4915201, 1, 0, 4915206, 1, 0, 4915226, 1, 0, 4915244, 1, 0, 4915251, 1, 0, 4915281, 0, 0, 4915293, 0, 0, 4915296, 1, 0, 4915327, 0, 0, 4915332, 0, 0, 4915333, 0, 0, 4915334, 0, 0, 4915340, 0, 0, 4980737, 1, 0, 4980742, 1, 0, 4980762, 1, 0, 4980780, 1, 0, 4980787, 1, 0, 4980817, 0, 0, 4980829, 0, 0, 4980832, 1, 0, 4980841, 0, 0, 4980845, 0, 0, 4980849, 0, 0, 4980852, 0, 0, 4980863, 0, 0, 4980866, 0, 0, 4980867, 0, 0, 4980869, 0, 0, 5046273, 1, 0, 5046278, 1, 0, 5046298, 1, 0, 5046316, 1, 0, 5046323, 1, 0, 5046353, 0, 0, 5046354, 0, 0, 5046355, 0, 0, 5046356, 0, 0, 5046357, 0, 0, 5046358, 0, 0, 5046359, 0, 0, 5046360, 0, 0, 5046361, 0, 0, 5046362, 0, 0, 5046363, 0, 0, 5046364, 0, 0, 5046365, 0, 0, 5046368, 1, 0, 5046378, 0, 0, 5046380, 0, 0, 5046386, 0, 0, 5046387, 0, 0, 5046393, 0, 0, 5046400, 0, 0, 5046401, 0, 0, 5046406, 0, 0, 5111809, 1, 0, 5111814, 1, 0, 5111824, 1, 0, 5111825, 1, 0, 5111826, 1, 0, 5111827, 1, 0, 5111828, 1, 0, 5111829, 1, 0, 5111830, 1, 0, 5111832, 1, 0, 5111833, 1, 0, 5111834, 1, 0, 5111852, 1, 0, 5111859, 1, 0, 5111904, 1, 0, 5111915, 0, 0, 5111920, 0, 0, 5111921, 0, 0, 5111923, 0, 0, 5111930, 0, 0, 5111934, 0, 0, 5111935, 0, 0, 5111936, 0, 0, 5111942, 0, 0, 5177345, 1, 0, 5177350, 1, 0, 5177360, 1, 0, 5177388, 1, 0, 5177395, 1, 0, 5177440, 1, 0, 5177450, 0, 0, 5177452, 0, 0, 5177455, 0, 0, 5177460, 0, 0, 5177467, 0, 0, 5177468, 0, 0, 5177469, 0, 0, 5177473, 0, 0, 5177479, 0, 0, 5242881, 1, 0, 5242886, 1, 0, 5242896, 1, 0, 5242924, 1, 0, 5242931, 1, 0, 5242976, 1, 0, 5242980, 0, 0, 5242985, 0, 0, 5242989, 0, 0, 5242990, 0, 0, 5242997, 0, 0, 5243003, 0, 0, 5243004, 0, 0, 5243015, 0, 0, 5308417, 1, 0, 5308422, 1, 0, 5308432, 1, 0, 5308452, 1, 0, 5308453, 1, 0, 5308454, 1, 0, 5308455, 1, 0, 5308456, 1, 0, 5308457, 1, 0, 5308458, 1, 0, 5308459, 1, 0, 5308460, 1, 0, 5308467, 1, 0, 5308468, 1, 0, 5308469, 1, 0, 5308470, 1, 0, 5308471, 1, 0, 5308472, 1, 0, 5308473, 1, 0, 5308474, 1, 0, 5308475, 1, 0, 5308512, 1, 0, 5308517, 0, 0, 5308520, 0, 0, 5308524, 0, 0, 5308526, 0, 0, 5308534, 0, 0, 5308541, 0, 0, 5308542, 0, 0, 5308552, 0, 0, 5373953, 1, 0, 5373958, 1, 0, 5373968, 1, 0, 5373988, 1, 0, 5374011, 1, 0, 5374034, 0, 0, 5374035, 0, 0, 5374036, 0, 0, 5374037, 0, 0, 5374038, 0, 0, 5374039, 0, 0, 5374040, 0, 0, 5374041, 0, 0, 5374042, 0, 0, 5374043, 0, 0, 5374048, 1, 0, 5374053, 0, 0, 5374055, 0, 0, 5374063, 0, 0, 5374067, 0, 0, 5374070, 0, 0, 5374079, 0, 0, 5374088, 0, 0, 5439489, 1, 0, 5439494, 1, 0, 5439504, 1, 0, 5439524, 1, 0, 5439547, 1, 0, 5439570, 0, 0, 5439579, 0, 0, 5439584, 1, 0, 5439590, 0, 0, 5439602, 0, 0, 5439603, 0, 0, 5439607, 0, 0, 5439616, 0, 0, 5439617, 0, 0, 5439618, 0, 0, 5439619, 0, 0, 5439620, 0, 0, 5439625, 0, 0, 5505025, 1, 0, 5505030, 1, 0, 5505040, 1, 0, 5505060, 1, 0, 5505083, 1, 0, 5505106, 0, 0, 5505115, 0, 0, 5505120, 1, 0, 5505125, 0, 0, 5505126, 0, 0, 5505130, 0, 0, 5505131, 0, 0, 5505136, 0, 0, 5505137, 0, 0, 5505139, 0, 0, 5505144, 0, 0, 5505147, 0, 0, 5505148, 0, 0, 5505149, 0, 0, 5505150, 0, 0, 5505151, 0, 0, 5505152, 0, 0, 5505153, 0, 0, 5505161, 0, 0, 5570561, 1, 0, 5570566, 1, 0, 5570576, 1, 0, 5570577, 1, 0, 5570578, 1, 0, 5570579, 1, 0, 5570580, 1, 0, 5570581, 1, 0, 5570582, 1, 0, 5570583, 1, 0, 5570584, 1, 0, 5570585, 1, 0, 5570586, 1, 0, 5570596, 1, 0, 5570619, 1, 0, 5570642, 0, 0, 5570651, 0, 0, 5570656, 1, 0, 5570660, 0, 0, 5570663, 0, 0, 5570664, 0, 0, 5570665, 0, 0, 5570670, 0, 0, 5570671, 0, 0, 5570673, 0, 0, 5570674, 0, 0, 5570675, 0, 0, 5570676, 0, 0, 5570677, 0, 0, 5570679, 0, 0, 5570680, 0, 0, 5570681, 0, 0, 5570682, 0, 0, 5570690, 0, 0, 5636097, 1, 0, 5636102, 1, 0, 5636122, 1, 0, 5636132, 1, 0, 5636155, 1, 0, 5636178, 0, 0, 5636187, 0, 0, 5636192, 1, 0, 5636198, 0, 0, 5636199, 0, 0, 5636200, 0, 0, 5636204, 0, 0, 5636205, 0, 0, 5636212, 0, 0, 5636218, 0, 0, 5701633, 1, 0, 5701638, 1, 0, 5701658, 1, 0, 5701668, 1, 0, 5701691, 1, 0, 5701714, 0, 0, 5701723, 0, 0, 5701728, 1, 0, 5701732, 0, 0, 5701733, 0, 0, 5701736, 0, 0, 5701739, 0, 0, 5701748, 0, 0, 5701755, 0, 0, 5701764, 0, 0, 5701765, 0, 0, 5767169, 1, 0, 5767174, 1, 0, 5767194, 1, 0, 5767204, 1, 0, 5767227, 1, 0, 5767250, 0, 0, 5767259, 0, 0, 5767264, 1, 0, 5767266, 0, 0, 5767267, 0, 0, 5767273, 0, 0, 5767274, 0, 0, 5767284, 0, 0, 5767298, 0, 0, 5767299, 0, 0, 5832705, 1, 0, 5832710, 1, 0, 5832730, 1, 0, 5832740, 1, 0, 5832763, 1, 0, 5832786, 0, 0, 5832787, 0, 0, 5832788, 0, 0, 5832789, 0, 0, 5832791, 0, 0, 5832792, 0, 0, 5832793, 0, 0, 5832794, 0, 0, 5832795, 0, 0, 5832800, 1, 0, 5832801, 0, 0, 5832811, 0, 0, 5898241, 1, 0, 5898246, 1, 0, 5898247, 1, 0, 5898248, 1, 0, 5898249, 1, 0, 5898250, 1, 0, 5898251, 1, 0, 5898252, 1, 0, 5898253, 1, 0, 5898254, 1, 0, 5898255, 1, 0, 5898256, 1, 0, 5898257, 1, 0, 5898258, 1, 0, 5898259, 1, 0, 5898260, 1, 0, 5898261, 1, 0, 5898262, 1, 0, 5898264, 1, 0, 5898265, 1, 0, 5898266, 1, 0, 5898276, 1, 0, 5898299, 1, 0, 5898336, 1, 0, 5898348, 0, 0, 5898349, 0, 0, 5898356, 0, 0, 5898357, 0, 0, 5963777, 1, 0, 5963812, 1, 0, 5963813, 1, 0, 5963814, 1, 0, 5963815, 1, 0, 5963816, 1, 0, 5963817, 1, 0, 5963818, 1, 0, 5963819, 1, 0, 5963820, 1, 0, 5963821, 1, 0, 5963822, 1, 0, 5963823, 1, 0, 5963824, 1, 0, 5963825, 1, 0, 5963826, 1, 0, 5963827, 1, 0, 5963828, 1, 0, 5963829, 1, 0, 5963830, 1, 0, 5963831, 1, 0, 5963832, 1, 0, 5963833, 1, 0, 5963834, 1, 0, 5963835, 1, 0, 5963872, 1, 0, 5963886, 0, 0, 5963889, 0, 0, 5963890, 0, 0, 5963891, 0, 0, 6029313, 1, 0, 6029408, 1, 0, 6029423, 0, 0, 6029424, 0, 0, 6094849, 1, 0, 6094944, 1, 0, 6160385, 1, 0, 6160480, 1, 0, 6225921, 1, 0, 6291457, 1, 0, 6291458, 1, 0, 6291459, 1, 0, 6291460, 1, 0, 6291461, 1, 0, 6291462, 1, 0, 6291463, 1, 0, 6291464, 1, 0, 6291465, 1, 0, 6291466, 1, 0, 6291467, 1, 0, 6291468, 1, 0, 6291469, 1, 0, 6291470, 1, 0, 6291471, 1, 0, 6291472, 1, 0, 6291473, 1, 0, 6291474, 1, 0, 6291475, 1, 0, 6291476, 1, 0, 6291477, 1, 0, 6291478, 1, 0, 6291479, 1, 0, 6291480, 1, 0, 6291481, 1, 0, 6291482, 1, 0, 6291483, 1, 0, 6291484, 1, 0, 6291485, 1, 0, 6291486, 1, 0, 6291487, 1, 0, 6291488, 1, 0, 6291489, 1, 0, 6291490, 1, 0, 6291491, 1, 0, 6291492, 1, 0, 6291493, 1, 0, 6291494, 1, 0, 6291495, 1, 0, 6291496, 1, 0, 6291497, 1, 0, 6291498, 1, 0, 6291499, 1, 0, 6291500, 1, 0, 6291501, 1, 0, 6291502, 1, 0, 6291503, 1, 0, 6291504, 1, 0, 6291505, 1, 0, 6291506, 1, 0, 6291507, 1, 0, 6291508, 1, 0, 6291509, 1, 0, 6291510, 1, 0, 6291511, 1, 0, 6291512, 1, 0, 6291513, 1, 0, 6291514, 1, 0, 6291515, 1, 0, 6291516, 1, 0, 6291517, 1, 0, 6291518, 1, 0, 6291519, 1, 0, 6291520, 1, 0, 6291521, 1, 0, 6291522, 1, 0, 6291523, 1, 0, 6291524, 1, 0, 6291525, 1, 0, 6291526, 1, 0, 6291527, 1, 0, 6291528, 1, 0, 6291529, 1, 0, 6291530, 1, 0, 6291531, 1, 0, 6291532, 1, 0, 6291533, 1, 0, 6291534, 1, 0, 6291535, 1, 0, 6291536, 1, 0, 6291537, 1, 0, 6291538, 1, 0, 6291539, 1, 0, 6291540, 1, 0, 6291541, 1, 0, 6291542, 1, 0, 6291543, 1, 0, 6291544, 1, 0, 6291545, 1, 0, 6291546, 1, 0, 6291547, 1, 0, 6291548, 1, 0, 6291549, 1, 0, 6291550, 1, 0, 6291551, 1, 0, 6291552, 1, 0 )

[node name="Door1" parent="YSort" instance=ExtResource( 4 )]
position = Vector2( 815, 930 )

[node name="Door2" parent="YSort" instance=ExtResource( 4 )]
position = Vector2( 1200, 1347 )

[node name="Door3" parent="YSort" instance=ExtResource( 4 )]
position = Vector2( 1488, 1350 )

[node name="Door4" parent="YSort" instance=ExtResource( 4 )]
position = Vector2( 1776, 1350 )

[node name="Door5" parent="YSort" instance=ExtResource( 4 )]
position = Vector2( 1776, 2019 )

[node name="Door6" parent="YSort" instance=ExtResource( 4 )]
position = Vector2( 1488, 2022 )

[node name="Door7" parent="YSort" instance=ExtResource( 4 )]
position = Vector2( 1200, 2019 )

[node name="Door8" parent="YSort" instance=ExtResource( 4 )]
position = Vector2( 816, 1635 )

[node name="Door9" parent="YSort" instance=ExtResource( 4 )]
position = Vector2( 336, 1635 )

[node name="Door10" parent="YSort" instance=ExtResource( 4 )]
position = Vector2( 336, 1408 )

[node name="Door11" parent="YSort" instance=ExtResource( 4 )]
position = Vector2( 1648, 898 )

[node name="Door12" parent="YSort" instance=ExtResource( 4 )]
position = Vector2( 1872, 898 )

[node name="Door13" parent="YSort" instance=ExtResource( 4 )]
position = Vector2( 2416, 387 )

[node name="Door14" parent="YSort" instance=ExtResource( 4 )]
position = Vector2( 2864, 390 )

[node name="Door15" parent="YSort" instance=ExtResource( 4 )]
position = Vector2( 2672, 933 )

[node name="Door16" parent="YSort" instance=ExtResource( 4 )]
position = Vector2( 2384, 1440 )

[node name="Door17" parent="YSort" instance=ExtResource( 4 )]
position = Vector2( 3216, 1443 )

[node name="Door18" parent="YSort" instance=ExtResource( 4 )]
position = Vector2( 2448, 2304 )

[node name="Door19" parent="YSort" instance=ExtResource( 4 )]
position = Vector2( 2768, 2851 )

[node name="Door20" parent="YSort" instance=ExtResource( 4 )]
position = Vector2( 1808, 2339 )

[node name="Door21" parent="YSort" instance=ExtResource( 4 )]
position = Vector2( 1264, 2339 )

[node name="Door22" parent="YSort" instance=ExtResource( 4 )]
position = Vector2( 752, 2496 )

[node name="Door23" parent="YSort" instance=ExtResource( 4 )]
position = Vector2( 752, 2883 )

[node name="NPC" parent="YSort" instance=ExtResource( 5 )]
position = Vector2( 911, 211 )
buys_item = 1

[node name="Player" parent="YSort" instance=ExtResource( 6 )]
position = Vector2( 714, 286 )

[node name="Camera2D" type="Camera2D" parent="YSort/Player"]
current = true
smoothing_enabled = true
smoothing_speed = 10.0
drag_margin_left = 0.05
drag_margin_top = 0.05
drag_margin_right = 0.05
drag_margin_bottom = 0.05

[node name="CanvasLayer" type="CanvasLayer" parent="YSort/Player/Camera2D"]

[node name="HUD" parent="YSort/Player/Camera2D/CanvasLayer" instance=ExtResource( 7 )]

[node name="CharismaStation" parent="YSort" instance=ExtResource( 8 )]
position = Vector2( 1568, 368 )

[node name="Places" type="Node2D" parent="."]

[node name="PlaceGym" type="Position2D" parent="Places"]
position = Vector2( 416, 736 )

[node name="PlaceGhetto" type="Position2D" parent="Places"]
position = Vector2( 1536, 352 )

[node name="PlaceGhettoHouse1" type="Position2D" parent="Places"]
position = Vector2( 1648, 768 )

[node name="PlaceGhettoHouse2" type="Position2D" parent="Places"]
position = Vector2( 1840, 768 )

[node name="PlaceLibrary" type="Position2D" parent="Places"]
position = Vector2( 2800, 768 )

[node name="PlaceWarehouse1" type="Position2D" parent="Places"]
position = Vector2( 2416, 304 )

[node name="PlaceWarehouse2" type="Position2D" parent="Places"]
position = Vector2( 2816, 233 )

[node name="PlacePoliceStation" type="Position2D" parent="Places"]
position = Vector2( 2832, 1667 )

[node name="PlaceHouse1" type="Position2D" parent="Places"]
position = Vector2( 1248, 1216 )

[node name="PlaceHouse2" type="Position2D" parent="Places"]
position = Vector2( 1552, 1216 )

[node name="PlaceHouse3" type="Position2D" parent="Places"]
position = Vector2( 1856, 1216 )

[node name="PlaceHouse4" type="Position2D" parent="Places"]
position = Vector2( 1232, 1888 )

[node name="PlaceHouse5" type="Position2D" parent="Places"]
position = Vector2( 1536, 1888 )

[node name="PlaceHouse6" type="Position2D" parent="Places"]
position = Vector2( 1808, 1888 )

[node name="PlaceSchool" type="Position2D" parent="Places"]
position = Vector2( 462, 1520 )

[node name="PlaceHospital" type="Position2D" parent="Places"]
position = Vector2( 368, 2592 )

[node name="PlaceLawFirm" type="Position2D" parent="Places"]
position = Vector2( 1520, 2752 )

[node name="PlaceSodaBar" type="Position2D" parent="Places"]
position = Vector2( 2800, 2272 )

[node name="PlaceAbandonedHouse" type="Position2D" parent="Places"]
position = Vector2( 2784, 2720 )

[node name="PlacePatrol1" type="Position2D" parent="Places"]
position = Vector2( 1056, 128 )

[node name="PlacePatrol2" type="Position2D" parent="Places"]
position = Vector2( 2016, 126 )

[node name="PlacePatrol3" type="Position2D" parent="Places"]
position = Vector2( 108, 1056 )

[node name="PlacePatrol4" type="Position2D" parent="Places"]
position = Vector2( 1056, 1040 )

[node name="PlacePatrol5" type="Position2D" parent="Places"]
position = Vector2( 2016, 1056 )

[node name="PlacePatrol6" type="Position2D" parent="Places"]
position = Vector2( 3040, 1056 )

[node name="PlacePatrol7" type="Position2D" parent="Places"]
position = Vector2( 96, 2080 )

[node name="PlacePatrol8" type="Position2D" parent="Places"]
position = Vector2( 1056, 2080 )

[node name="PlacePatrol9" type="Position2D" parent="Places"]
position = Vector2( 2016, 2080 )

[node name="PlacePatrol10" type="Position2D" parent="Places"]
position = Vector2( 3024, 2080 )

[node name="PlacePatrol11" type="Position2D" parent="Places"]
position = Vector2( 1056, 3008 )

[node name="PlacePatrol12" type="Position2D" parent="Places"]
position = Vector2( 2016, 3008 )

[node name="Timer" type="Timer" parent="."]
autostart = true

[connection signal="item_drop" from="YSort/Player/Camera2D/CanvasLayer/HUD" to="." method="_on_HUD_item_drop"]
[connection signal="item_eat" from="YSort/Player/Camera2D/CanvasLayer/HUD" to="." method="_on_HUD_item_eat"]
[connection signal="timeout" from="Timer" to="." method="_on_Timer_timeout"]
